HW3/ALU/alu.vcd
$date
	Wed Nov 25 02:56:15 2020
$end
$version
	Icarus Verilog
$end
$timescale
	1ps
$end
$scope module test_alu $end
$var wire 1 ! rst_n $end
$var wire 1 " overflow $end
$var wire 1 # ovalid $end
$var wire 32 $ odata [31:0] $end
$var wire 1 % ivalid $end
$var wire 4 & inst [3:0] $end
$var wire 32 ' idata_b [31:0] $end
$var wire 32 ( idata_a [31:0] $end
$var wire 1 ) clk $end
$scope module u_alu $end
$var wire 32 * o_data [31:0] $end
$var wire 1 " o_overflow $end
$var wire 1 # o_valid $end
$var wire 1 % i_valid $end
$var wire 1 ! i_rst_n $end
$var wire 4 + i_inst [3:0] $end
$var wire 32 , i_data_b [31:0] $end
$var wire 32 - i_data_a [31:0] $end
$var wire 1 ) i_clk $end
$var reg 1 . extra $end
$var reg 32 / o_data_r [31:0] $end
$var reg 32 0 o_data_w [31:0] $end
$var reg 1 1 o_overflow_r $end
$var reg 1 2 o_overflow_w $end
$var reg 1 3 o_valid_r $end
$var reg 1 4 o_valid_w $end
$var reg 32 5 signed_data_a [31:0] $end
$var reg 32 6 signed_data_b [31:0] $end
$var integer 32 7 i [31:0] $end
$upscope $end
$scope module u_alu_test $end
$var wire 32 8 i_data [31:0] $end
$var wire 1 " i_overflow $end
$var wire 1 # i_valid $end
$var wire 1 ! i_rst_n $end
$var wire 1 ) i_clk $end
$var reg 6 9 cs [5:0] $end
$var reg 6 : ns [5:0] $end
$var reg 32 ; o_data_a [31:0] $end
$var reg 32 < o_data_b [31:0] $end
$var reg 4 = o_inst [3:0] $end
$var reg 1 % o_valid $end
$var integer 32 > total_error [31:0] $end
$scope begin test_unit[0] $end
$scope module inst $end
$var wire 32 ? i_data [31:0] $end
$var wire 1 " i_overflow $end
$var wire 1 @ i_start $end
$var wire 1 # i_valid $end
$var wire 32 A o_data_a [31:0] $end
$var wire 32 B o_data_b [31:0] $end
$var wire 1 C o_valid $end
$var wire 1 D test_finish $end
$var wire 1 E output_overflow $end
$var wire 32 F output_data [31:0] $end
$var wire 4 G o_inst [3:0] $end
$var wire 1 H o_done $end
$var wire 32 I input_B [31:0] $end
$var wire 32 J input_A [31:0] $end
$var wire 1 ! i_rst_n $end
$var wire 1 ) i_clk $end
$var reg 3 K cs_ [2:0] $end
$var reg 3 L idx_r [2:0] $end
$var reg 3 M idx_w [2:0] $end
$var reg 3 N ns_ [2:0] $end
$var reg 32 O o_data_a_r [31:0] $end
$var reg 32 P o_data_a_w [31:0] $end
$var reg 32 Q o_data_b_r [31:0] $end
$var reg 32 R o_data_b_w [31:0] $end
$var reg 1 S o_valid_r $end
$var reg 1 T o_valid_w $end
$var integer 32 U error [31:0] $end
$upscope $end
$upscope $end
$scope begin test_unit[1] $end
$scope module inst $end
$var wire 32 V i_data [31:0] $end
$var wire 1 " i_overflow $end
$var wire 1 W i_start $end
$var wire 1 # i_valid $end
$var wire 32 X o_data_a [31:0] $end
$var wire 32 Y o_data_b [31:0] $end
$var wire 1 Z o_valid $end
$var wire 1 [ test_finish $end
$var wire 1 \ output_overflow $end
$var wire 32 ] output_data [31:0] $end
$var wire 4 ^ o_inst [3:0] $end
$var wire 1 _ o_done $end
$var wire 32 ` input_B [31:0] $end
$var wire 32 a input_A [31:0] $end
$var wire 1 ! i_rst_n $end
$var wire 1 ) i_clk $end
$var reg 3 b cs_ [2:0] $end
$var reg 3 c idx_r [2:0] $end
$var reg 3 d idx_w [2:0] $end
$var reg 3 e ns_ [2:0] $end
$var reg 32 f o_data_a_r [31:0] $end
$var reg 32 g o_data_a_w [31:0] $end
$var reg 32 h o_data_b_r [31:0] $end
$var reg 32 i o_data_b_w [31:0] $end
$var reg 1 j o_valid_r $end
$var reg 1 k o_valid_w $end
$var integer 32 l error [31:0] $end
$upscope $end
$upscope $end
$scope begin test_unit[2] $end
$scope module inst $end
$var wire 32 m i_data [31:0] $end
$var wire 1 " i_overflow $end
$var wire 1 n i_start $end
$var wire 1 # i_valid $end
$var wire 32 o o_data_a [31:0] $end
$var wire 32 p o_data_b [31:0] $end
$var wire 1 q o_valid $end
$var wire 1 r test_finish $end
$var wire 1 s output_overflow $end
$var wire 32 t output_data [31:0] $end
$var wire 4 u o_inst [3:0] $end
$var wire 1 v o_done $end
$var wire 32 w input_B [31:0] $end
$var wire 32 x input_A [31:0] $end
$var wire 1 ! i_rst_n $end
$var wire 1 ) i_clk $end
$var reg 3 y cs_ [2:0] $end
$var reg 3 z idx_r [2:0] $end
$var reg 3 { idx_w [2:0] $end
$var reg 3 | ns_ [2:0] $end
$var reg 32 } o_data_a_r [31:0] $end
$var reg 32 ~ o_data_a_w [31:0] $end
$var reg 32 !" o_data_b_r [31:0] $end
$var reg 32 "" o_data_b_w [31:0] $end
$var reg 1 #" o_valid_r $end
$var reg 1 $" o_valid_w $end
$var integer 32 %" error [31:0] $end
$upscope $end
$upscope $end
$scope begin test_unit[3] $end
$scope module inst $end
$var wire 32 &" i_data [31:0] $end
$var wire 1 " i_overflow $end
$var wire 1 '" i_start $end
$var wire 1 # i_valid $end
$var wire 32 (" o_data_a [31:0] $end
$var wire 32 )" o_data_b [31:0] $end
$var wire 1 *" o_valid $end
$var wire 1 +" test_finish $end
$var wire 1 ," output_overflow $end
$var wire 32 -" output_data [31:0] $end
$var wire 4 ." o_inst [3:0] $end
$var wire 1 /" o_done $end
$var wire 32 0" input_B [31:0] $end
$var wire 32 1" input_A [31:0] $end
$var wire 1 ! i_rst_n $end
$var wire 1 ) i_clk $end
$var reg 3 2" cs_ [2:0] $end
$var reg 3 3" idx_r [2:0] $end
$var reg 3 4" idx_w [2:0] $end
$var reg 3 5" ns_ [2:0] $end
$var reg 32 6" o_data_a_r [31:0] $end
$var reg 32 7" o_data_a_w [31:0] $end
$var reg 32 8" o_data_b_r [31:0] $end
$var reg 32 9" o_data_b_w [31:0] $end
$var reg 1 :" o_valid_r $end
$var reg 1 ;" o_valid_w $end
$var integer 32 <" error [31:0] $end
$upscope $end
$upscope $end
$scope begin test_unit[4] $end
$scope module inst $end
$var wire 32 =" i_data [31:0] $end
$var wire 1 " i_overflow $end
$var wire 1 >" i_start $end
$var wire 1 # i_valid $end
$var wire 32 ?" o_data_a [31:0] $end
$var wire 32 @" o_data_b [31:0] $end
$var wire 1 A" o_valid $end
$var wire 1 B" test_finish $end
$var wire 1 C" output_overflow $end
$var wire 32 D" output_data [31:0] $end
$var wire 4 E" o_inst [3:0] $end
$var wire 1 F" o_done $end
$var wire 32 G" input_B [31:0] $end
$var wire 32 H" input_A [31:0] $end
$var wire 1 ! i_rst_n $end
$var wire 1 ) i_clk $end
$var reg 3 I" cs_ [2:0] $end
$var reg 3 J" idx_r [2:0] $end
$var reg 3 K" idx_w [2:0] $end
$var reg 3 L" ns_ [2:0] $end
$var reg 32 M" o_data_a_r [31:0] $end
$var reg 32 N" o_data_a_w [31:0] $end
$var reg 32 O" o_data_b_r [31:0] $end
$var reg 32 P" o_data_b_w [31:0] $end
$var reg 1 Q" o_valid_r $end
$var reg 1 R" o_valid_w $end
$var integer 32 S" error [31:0] $end
$upscope $end
$upscope $end
$scope begin test_unit[5] $end
$scope module inst $end
$var wire 32 T" i_data [31:0] $end
$var wire 1 " i_overflow $end
$var wire 1 U" i_start $end
$var wire 1 # i_valid $end
$var wire 32 V" o_data_a [31:0] $end
$var wire 32 W" o_data_b [31:0] $end
$var wire 1 X" o_valid $end
$var wire 1 Y" test_finish $end
$var wire 1 Z" output_overflow $end
$var wire 32 [" output_data [31:0] $end
$var wire 4 \" o_inst [3:0] $end
$var wire 1 ]" o_done $end
$var wire 32 ^" input_B [31:0] $end
$var wire 32 _" input_A [31:0] $end
$var wire 1 ! i_rst_n $end
$var wire 1 ) i_clk $end
$var reg 3 `" cs_ [2:0] $end
$var reg 3 a" idx_r [2:0] $end
$var reg 3 b" idx_w [2:0] $end
$var reg 3 c" ns_ [2:0] $end
$var reg 32 d" o_data_a_r [31:0] $end
$var reg 32 e" o_data_a_w [31:0] $end
$var reg 32 f" o_data_b_r [31:0] $end
$var reg 32 g" o_data_b_w [31:0] $end
$var reg 1 h" o_valid_r $end
$var reg 1 i" o_valid_w $end
$var integer 32 j" error [31:0] $end
$upscope $end
$upscope $end
$scope begin test_unit[6] $end
$scope module inst $end
$var wire 32 k" i_data [31:0] $end
$var wire 1 " i_overflow $end
$var wire 1 l" i_start $end
$var wire 1 # i_valid $end
$var wire 32 m" o_data_a [31:0] $end
$var wire 32 n" o_data_b [31:0] $end
$var wire 1 o" o_valid $end
$var wire 1 p" test_finish $end
$var wire 1 q" output_overflow $end
$var wire 32 r" output_data [31:0] $end
$var wire 4 s" o_inst [3:0] $end
$var wire 1 t" o_done $end
$var wire 32 u" input_B [31:0] $end
$var wire 32 v" input_A [31:0] $end
$var wire 1 ! i_rst_n $end
$var wire 1 ) i_clk $end
$var reg 3 w" cs_ [2:0] $end
$var reg 3 x" idx_r [2:0] $end
$var reg 3 y" idx_w [2:0] $end
$var reg 3 z" ns_ [2:0] $end
$var reg 32 {" o_data_a_r [31:0] $end
$var reg 32 |" o_data_a_w [31:0] $end
$var reg 32 }" o_data_b_r [31:0] $end
$var reg 32 ~" o_data_b_w [31:0] $end
$var reg 1 !# o_valid_r $end
$var reg 1 "# o_valid_w $end
$var integer 32 ## error [31:0] $end
$upscope $end
$upscope $end
$scope begin test_unit[7] $end
$scope module inst $end
$var wire 32 $# i_data [31:0] $end
$var wire 1 " i_overflow $end
$var wire 1 %# i_start $end
$var wire 1 # i_valid $end
$var wire 32 &# o_data_a [31:0] $end
$var wire 32 '# o_data_b [31:0] $end
$var wire 1 (# o_valid $end
$var wire 1 )# test_finish $end
$var wire 1 *# output_overflow $end
$var wire 32 +# output_data [31:0] $end
$var wire 4 ,# o_inst [3:0] $end
$var wire 1 -# o_done $end
$var wire 32 .# input_B [31:0] $end
$var wire 32 /# input_A [31:0] $end
$var wire 1 ! i_rst_n $end
$var wire 1 ) i_clk $end
$var reg 3 0# cs_ [2:0] $end
$var reg 3 1# idx_r [2:0] $end
$var reg 3 2# idx_w [2:0] $end
$var reg 3 3# ns_ [2:0] $end
$var reg 32 4# o_data_a_r [31:0] $end
$var reg 32 5# o_data_a_w [31:0] $end
$var reg 32 6# o_data_b_r [31:0] $end
$var reg 32 7# o_data_b_w [31:0] $end
$var reg 1 8# o_valid_r $end
$var reg 1 9# o_valid_w $end
$var integer 32 :# error [31:0] $end
$upscope $end
$upscope $end
$scope begin test_unit[8] $end
$scope module inst $end
$var wire 32 ;# i_data [31:0] $end
$var wire 1 " i_overflow $end
$var wire 1 <# i_start $end
$var wire 1 # i_valid $end
$var wire 32 =# o_data_a [31:0] $end
$var wire 32 ># o_data_b [31:0] $end
$var wire 1 ?# o_valid $end
$var wire 1 @# test_finish $end
$var wire 1 A# output_overflow $end
$var wire 32 B# output_data [31:0] $end
$var wire 4 C# o_inst [3:0] $end
$var wire 1 D# o_done $end
$var wire 32 E# input_B [31:0] $end
$var wire 32 F# input_A [31:0] $end
$var wire 1 ! i_rst_n $end
$var wire 1 ) i_clk $end
$var reg 3 G# cs_ [2:0] $end
$var reg 3 H# idx_r [2:0] $end
$var reg 3 I# idx_w [2:0] $end
$var reg 3 J# ns_ [2:0] $end
$var reg 32 K# o_data_a_r [31:0] $end
$var reg 32 L# o_data_a_w [31:0] $end
$var reg 32 M# o_data_b_r [31:0] $end
$var reg 32 N# o_data_b_w [31:0] $end
$var reg 1 O# o_valid_r $end
$var reg 1 P# o_valid_w $end
$var integer 32 Q# error [31:0] $end
$upscope $end
$upscope $end
$scope begin test_unit[9] $end
$scope module inst $end
$var wire 32 R# i_data [31:0] $end
$var wire 1 " i_overflow $end
$var wire 1 S# i_start $end
$var wire 1 # i_valid $end
$var wire 32 T# o_data_a [31:0] $end
$var wire 32 U# o_data_b [31:0] $end
$var wire 1 V# o_valid $end
$var wire 1 W# test_finish $end
$var wire 1 X# output_overflow $end
$var wire 32 Y# output_data [31:0] $end
$var wire 4 Z# o_inst [3:0] $end
$var wire 1 [# o_done $end
$var wire 32 \# input_B [31:0] $end
$var wire 32 ]# input_A [31:0] $end
$var wire 1 ! i_rst_n $end
$var wire 1 ) i_clk $end
$var reg 3 ^# cs_ [2:0] $end
$var reg 3 _# idx_r [2:0] $end
$var reg 3 `# idx_w [2:0] $end
$var reg 3 a# ns_ [2:0] $end
$var reg 32 b# o_data_a_r [31:0] $end
$var reg 32 c# o_data_a_w [31:0] $end
$var reg 32 d# o_data_b_r [31:0] $end
$var reg 32 e# o_data_b_w [31:0] $end
$var reg 1 f# o_valid_r $end
$var reg 1 g# o_valid_w $end
$var integer 32 h# error [31:0] $end
$upscope $end
$upscope $end
$scope begin test_unit[10] $end
$scope module inst $end
$var wire 32 i# i_data [31:0] $end
$var wire 1 " i_overflow $end
$var wire 1 j# i_start $end
$var wire 1 # i_valid $end
$var wire 32 k# o_data_a [31:0] $end
$var wire 32 l# o_data_b [31:0] $end
$var wire 1 m# o_valid $end
$var wire 1 n# test_finish $end
$var wire 1 o# output_overflow $end
$var wire 32 p# output_data [31:0] $end
$var wire 4 q# o_inst [3:0] $end
$var wire 1 r# o_done $end
$var wire 32 s# input_B [31:0] $end
$var wire 32 t# input_A [31:0] $end
$var wire 1 ! i_rst_n $end
$var wire 1 ) i_clk $end
$var reg 3 u# cs_ [2:0] $end
$var reg 3 v# idx_r [2:0] $end
$var reg 3 w# idx_w [2:0] $end
$var reg 3 x# ns_ [2:0] $end
$var reg 32 y# o_data_a_r [31:0] $end
$var reg 32 z# o_data_a_w [31:0] $end
$var reg 32 {# o_data_b_r [31:0] $end
$var reg 32 |# o_data_b_w [31:0] $end
$var reg 1 }# o_valid_r $end
$var reg 1 ~# o_valid_w $end
$var integer 32 !$ error [31:0] $end
$upscope $end
$upscope $end
$scope begin test_unit[11] $end
$scope module inst $end
$var wire 32 "$ i_data [31:0] $end
$var wire 1 " i_overflow $end
$var wire 1 #$ i_start $end
$var wire 1 # i_valid $end
$var wire 32 $$ o_data_a [31:0] $end
$var wire 32 %$ o_data_b [31:0] $end
$var wire 1 &$ o_valid $end
$var wire 1 '$ test_finish $end
$var wire 1 ($ output_overflow $end
$var wire 32 )$ output_data [31:0] $end
$var wire 4 *$ o_inst [3:0] $end
$var wire 1 +$ o_done $end
$var wire 32 ,$ input_B [31:0] $end
$var wire 32 -$ input_A [31:0] $end
$var wire 1 ! i_rst_n $end
$var wire 1 ) i_clk $end
$var reg 3 .$ cs_ [2:0] $end
$var reg 3 /$ idx_r [2:0] $end
$var reg 3 0$ idx_w [2:0] $end
$var reg 3 1$ ns_ [2:0] $end
$var reg 32 2$ o_data_a_r [31:0] $end
$var reg 32 3$ o_data_a_w [31:0] $end
$var reg 32 4$ o_data_b_r [31:0] $end
$var reg 32 5$ o_data_b_w [31:0] $end
$var reg 1 6$ o_valid_r $end
$var reg 1 7$ o_valid_w $end
$var integer 32 8$ error [31:0] $end
$upscope $end
$upscope $end
$scope begin test_unit[12] $end
$scope module inst $end
$var wire 32 9$ i_data [31:0] $end
$var wire 1 " i_overflow $end
$var wire 1 :$ i_start $end
$var wire 1 # i_valid $end
$var wire 32 ;$ o_data_a [31:0] $end
$var wire 32 <$ o_data_b [31:0] $end
$var wire 1 =$ o_valid $end
$var wire 1 >$ test_finish $end
$var wire 1 ?$ output_overflow $end
$var wire 32 @$ output_data [31:0] $end
$var wire 4 A$ o_inst [3:0] $end
$var wire 1 B$ o_done $end
$var wire 32 C$ input_B [31:0] $end
$var wire 32 D$ input_A [31:0] $end
$var wire 1 ! i_rst_n $end
$var wire 1 ) i_clk $end
$var reg 3 E$ cs_ [2:0] $end
$var reg 3 F$ idx_r [2:0] $end
$var reg 3 G$ idx_w [2:0] $end
$var reg 3 H$ ns_ [2:0] $end
$var reg 32 I$ o_data_a_r [31:0] $end
$var reg 32 J$ o_data_a_w [31:0] $end
$var reg 32 K$ o_data_b_r [31:0] $end
$var reg 32 L$ o_data_b_w [31:0] $end
$var reg 1 M$ o_valid_r $end
$var reg 1 N$ o_valid_w $end
$var integer 32 O$ error [31:0] $end
$upscope $end
$upscope $end
$scope begin test_unit[13] $end
$scope module inst $end
$var wire 32 P$ i_data [31:0] $end
$var wire 1 " i_overflow $end
$var wire 1 Q$ i_start $end
$var wire 1 # i_valid $end
$var wire 32 R$ o_data_a [31:0] $end
$var wire 32 S$ o_data_b [31:0] $end
$var wire 1 T$ o_valid $end
$var wire 1 U$ test_finish $end
$var wire 1 V$ output_overflow $end
$var wire 32 W$ output_data [31:0] $end
$var wire 4 X$ o_inst [3:0] $end
$var wire 1 Y$ o_done $end
$var wire 32 Z$ input_B [31:0] $end
$var wire 32 [$ input_A [31:0] $end
$var wire 1 ! i_rst_n $end
$var wire 1 ) i_clk $end
$var reg 3 \$ cs_ [2:0] $end
$var reg 3 ]$ idx_r [2:0] $end
$var reg 3 ^$ idx_w [2:0] $end
$var reg 3 _$ ns_ [2:0] $end
$var reg 32 `$ o_data_a_r [31:0] $end
$var reg 32 a$ o_data_a_w [31:0] $end
$var reg 32 b$ o_data_b_r [31:0] $end
$var reg 32 c$ o_data_b_w [31:0] $end
$var reg 1 d$ o_valid_r $end
$var reg 1 e$ o_valid_w $end
$var integer 32 f$ error [31:0] $end
$upscope $end
$upscope $end
$scope begin test_unit[14] $end
$scope module inst $end
$var wire 32 g$ i_data [31:0] $end
$var wire 1 " i_overflow $end
$var wire 1 h$ i_start $end
$var wire 1 # i_valid $end
$var wire 32 i$ o_data_a [31:0] $end
$var wire 32 j$ o_data_b [31:0] $end
$var wire 1 k$ o_valid $end
$var wire 1 l$ test_finish $end
$var wire 1 m$ output_overflow $end
$var wire 32 n$ output_data [31:0] $end
$var wire 4 o$ o_inst [3:0] $end
$var wire 1 p$ o_done $end
$var wire 32 q$ input_B [31:0] $end
$var wire 32 r$ input_A [31:0] $end
$var wire 1 ! i_rst_n $end
$var wire 1 ) i_clk $end
$var reg 3 s$ cs_ [2:0] $end
$var reg 3 t$ idx_r [2:0] $end
$var reg 3 u$ idx_w [2:0] $end
$var reg 3 v$ ns_ [2:0] $end
$var reg 32 w$ o_data_a_r [31:0] $end
$var reg 32 x$ o_data_a_w [31:0] $end
$var reg 32 y$ o_data_b_r [31:0] $end
$var reg 32 z$ o_data_b_w [31:0] $end
$var reg 1 {$ o_valid_r $end
$var reg 1 |$ o_valid_w $end
$var integer 32 }$ error [31:0] $end
$upscope $end
$upscope $end
$upscope $end
$scope module u_clk $end
$var reg 1 ) clk $end
$var reg 1 ! rst_n $end
$upscope $end
$upscope $end
$enddefinitions $end
#0
$dumpvars
bx }$
0|$
x{$
b0 z$
bx y$
b0 x$
bx w$
bx v$
bx u$
bx t$
bx s$
bx r$
bx q$
xp$
bx o$
bx n$
xm$
xl$
xk$
bx j$
bx i$
xh$
bx g$
bx f$
0e$
xd$
b0 c$
bx b$
b0 a$
bx `$
bx _$
bx ^$
bx ]$
bx \$
bx [$
bx Z$
xY$
bx X$
bx W$
xV$
xU$
xT$
bx S$
bx R$
xQ$
bx P$
bx O$
0N$
xM$
b0 L$
bx K$
b0 J$
bx I$
bx H$
bx G$
bx F$
bx E$
bx D$
bx C$
xB$
bx A$
bx @$
x?$
x>$
x=$
bx <$
bx ;$
x:$
bx 9$
bx 8$
07$
x6$
b0 5$
bx 4$
b0 3$
bx 2$
bx 1$
bx 0$
bx /$
bx .$
bx -$
bx ,$
x+$
bx *$
bx )$
x($
x'$
x&$
bx %$
bx $$
x#$
bx "$
bx !$
0~#
x}#
b0 |#
bx {#
b0 z#
bx y#
bx x#
bx w#
bx v#
bx u#
bx t#
bx s#
xr#
bx q#
bx p#
xo#
xn#
xm#
bx l#
bx k#
xj#
bx i#
bx h#
0g#
xf#
b0 e#
bx d#
b0 c#
bx b#
bx a#
bx `#
bx _#
bx ^#
bx ]#
bx \#
x[#
bx Z#
bx Y#
xX#
xW#
xV#
bx U#
bx T#
xS#
bx R#
bx Q#
0P#
xO#
b0 N#
bx M#
b0 L#
bx K#
bx J#
bx I#
bx H#
bx G#
bx F#
bx E#
xD#
bx C#
bx B#
xA#
x@#
x?#
bx >#
bx =#
x<#
bx ;#
bx :#
09#
x8#
b0 7#
bx 6#
b0 5#
bx 4#
bx 3#
bx 2#
bx 1#
bx 0#
bx /#
bx .#
x-#
bx ,#
bx +#
x*#
x)#
x(#
bx '#
bx &#
x%#
bx $#
bx ##
0"#
x!#
b0 ~"
bx }"
b0 |"
bx {"
bx z"
bx y"
bx x"
bx w"
bx v"
bx u"
xt"
bx s"
bx r"
xq"
xp"
xo"
bx n"
bx m"
xl"
bx k"
bx j"
0i"
xh"
b0 g"
bx f"
b0 e"
bx d"
bx c"
bx b"
bx a"
bx `"
bx _"
bx ^"
x]"
bx \"
bx ["
xZ"
xY"
xX"
bx W"
bx V"
xU"
bx T"
bx S"
0R"
xQ"
b0 P"
bx O"
b0 N"
bx M"
bx L"
bx K"
bx J"
bx I"
bx H"
bx G"
xF"
bx E"
bx D"
xC"
xB"
xA"
bx @"
bx ?"
x>"
bx ="
bx <"
0;"
x:"
b0 9"
bx 8"
b0 7"
bx 6"
bx 5"
bx 4"
bx 3"
bx 2"
bx 1"
bx 0"
x/"
bx ."
bx -"
x,"
x+"
x*"
bx )"
bx ("
x'"
bx &"
bx %"
0$"
x#"
b0 ""
bx !"
b0 ~
bx }
bx |
bx {
bx z
bx y
bx x
bx w
xv
bx u
bx t
xs
xr
xq
bx p
bx o
xn
bx m
bx l
0k
xj
b0 i
bx h
b0 g
bx f
bx e
bx d
bx c
bx b
bx a
bx `
x_
bx ^
bx ]
x\
x[
xZ
bx Y
bx X
xW
bx V
bx U
0T
xS
b0 R
bx Q
b0 P
bx O
bx N
bx M
bx L
bx K
bx J
bx I
xH
bx G
bx F
xE
xD
xC
bx B
bx A
x@
bx ?
b0 >
bx =
bx <
bx ;
bx :
bx 9
bx 8
bx 7
bx 6
bx 5
04
x3
02
x1
b0 0
bx /
x.
bx -
bx ,
bx +
bx *
1)
bx (
bx '
bx &
0%
bx $
x#
x"
1!
$end
#2500
b11 J
b1111111111111111111111111111101 I
b10000000000000000000000000000000 F
1E
b0 G
b0 M
b0x N
b11 a
b1 `
b10 ]
0\
b1 ^
b0 d
b0x e
b10000000000 x
b1000000000000 w
b10000000000000000000000 t
0s
b10 u
b0 {
b0x |
b10000000000 1"
b1000000000000 0"
b1000000000000 -"
0,"
b11 ."
b0 4"
b0x 5"
b10000000000 H"
b1000000000000 G"
b10000000000 D"
0C"
b100 E"
b0 K"
b0x L"
b11 _"
b1111111111111111111111111111101 ^"
b10000000000000000000000000000000 ["
0Z"
b101 \"
b0 b"
b0x c"
b11 v"
b1111111111111111111111111111101 u"
b10000000000000000000000000000110 r"
1q"
b110 s"
b0 y"
b0x z"
b11 /#
b1000 .#
b11000 +#
0*#
b111 ,#
b0 2#
b0x 3#
b1000 F#
b11 E#
b1000 B#
0A#
b1000 C#
b0 I#
b0x J#
b1000 ]#
b11 \#
b11 Y#
0X#
b1001 Z#
b0 `#
b0x a#
b1000 t#
b11 s#
b0 p#
0o#
b1010 q#
b0 w#
b0x x#
b1000 -$
b11 ,$
b1011 )$
0($
b1011 *$
b0 0$
b0x 1$
b1000 D$
b11 C$
b1011 @$
0?$
b1100 A$
b0 G$
b0x H$
b1000 [$
b0 Z$
b11111111111111111111111111110111 W$
0V$
b1101 X$
b0 ^$
b0x _$
b1000 r$
b0 q$
b10000000000000000000000000000 n$
0m$
b1110 o$
b0 u$
b0x v$
b1 :
0#
03
0"
01
b0 $
b0 *
b0 8
b0 ?
b0 V
b0 m
b0 &"
b0 ="
b0 T"
b0 k"
b0 $#
b0 ;#
b0 R#
b0 i#
b0 "$
b0 9$
b0 P$
b0 g$
b0 /
b0 B
b0 Q
b0 A
b0 O
0C
0S
0D
b0 L
0H
b0 K
b0 Y
b0 h
b0 X
b0 f
0Z
0j
0[
b0 c
0_
b0 b
b0 p
b0 !"
b0 o
b0 }
0q
0#"
0r
b0 z
0v
b0 y
b0 )"
b0 8"
b0 ("
b0 6"
0*"
0:"
0+"
b0 3"
0/"
b0 2"
b0 @"
b0 O"
b0 ?"
b0 M"
0A"
0Q"
0B"
b0 J"
0F"
b0 I"
b0 W"
b0 f"
b0 V"
b0 d"
0X"
0h"
0Y"
b0 a"
0]"
b0 `"
b0 n"
b0 }"
b0 m"
b0 {"
0o"
0!#
0p"
b0 x"
0t"
b0 w"
b0 '#
b0 6#
b0 &#
b0 4#
0(#
08#
0)#
b0 1#
0-#
b0 0#
b0 >#
b0 M#
b0 =#
b0 K#
0?#
0O#
0@#
b0 H#
0D#
b0 G#
b0 U#
b0 d#
b0 T#
b0 b#
0V#
0f#
0W#
b0 _#
0[#
b0 ^#
b0 l#
b0 {#
b0 k#
b0 y#
0m#
0}#
0n#
b0 v#
0r#
b0 u#
b0 %$
b0 4$
b0 $$
b0 2$
0&$
06$
0'$
b0 /$
0+$
b0 .$
b0 <$
b0 K$
b0 ;$
b0 I$
0=$
0M$
0>$
b0 F$
0B$
b0 E$
b0 S$
b0 b$
b0 R$
b0 `$
0T$
0d$
0U$
b0 ]$
0Y$
b0 \$
b0 j$
b0 y$
b0 i$
b0 w$
0k$
0{$
0l$
b0 t$
0p$
b0 s$
b0 9
0!
#5000
b1 :
b0 U
b0 l
b0 %"
b0 <"
b0 S"
b0 j"
b0 ##
b0 :#
b0 Q#
b0 h#
b0 !$
b0 8$
b0 O$
b0 f$
b0 }$
0)
#10000
1)
#15000
0)
#20000
1)
#25000
0)
#30000
1)
#35000
0)
#40000
1)
#45000
0)
#50000
1)
1!
#55000
b0 6
b0 5
b0 N
b0 e
b0 |
b0 5"
b0 L"
b0 c"
b0 z"
b0 3#
b0 J#
b0 a#
b0 x#
b0 1$
b0 H$
b0 _$
b0 v$
b0 &
b0 +
b0 =
b0 '
b0 ,
b0 <
b0 (
b0 -
b0 ;
1@
b0x K
b0x b
b0x y
b0x 2"
b0x I"
b0x `"
b0x w"
b0x 0#
b0x G#
b0x ^#
b0x u#
b0x .$
b0x E$
b0x \$
b0x s$
b1 9
0)
#60000
1)
#65000
b0x v$
b0x _$
b0x H$
b0x 1$
b0x x#
b0x a#
b0x J#
b0x 3#
b0x z"
b0x c"
b0x L"
b0x 5"
b0x |
b0x e
b1 N
b0 s$
b0 \$
b0 E$
b0 .$
b0 u#
b0 ^#
b0 G#
b0 0#
b0 w"
b0 `"
b0 I"
b0 2"
b0 y
b0 b
b0 K
0)
#70000
1)
#75000
b1111111111111111111111111111101 R
b11 P
1T
b10 N
b0 e
b0 |
b0 5"
b0 L"
b0 c"
b0 z"
b0 3#
b0 J#
b0 a#
b0 x#
b0 1$
b0 H$
b0 _$
b0 v$
b1 K
b0x b
b0x y
b0x 2"
b0x I"
b0x `"
b0x w"
b0x 0#
b0x G#
b0x ^#
b0x u#
b0x .$
b0x E$
b0x \$
b0x s$
0)
#80000
1)
#85000
14
12
0.
b10000000000000000000000000000000 0
b1111111111111111111111111111101 6
b11 5
b0x v$
b0x _$
b0x H$
b0x 1$
b0x x#
b0x a#
b0x J#
b0x 3#
b0x z"
b0x c"
b0x L"
b0x 5"
b0x |
b0x e
1%
b1111111111111111111111111111101 '
b1111111111111111111111111111101 ,
b1111111111111111111111111111101 <
b11 (
b11 -
b11 ;
b0 R
b0 P
0T
b0 s$
b0 \$
b0 E$
b0 .$
b0 u#
b0 ^#
b0 G#
b0 0#
b0 w"
b0 `"
b0 I"
b0 2"
b0 y
b0 b
b1111111111111111111111111111101 B
b1111111111111111111111111111101 Q
b11 A
b11 O
1C
1S
b10 K
0)
#90000
b1 M
b1 N
1#
13
1"
11
b10000000000000000000000000000000 $
b10000000000000000000000000000000 *
b10000000000000000000000000000000 8
b10000000000000000000000000000000 ?
b10000000000000000000000000000000 V
b10000000000000000000000000000000 m
b10000000000000000000000000000000 &"
b10000000000000000000000000000000 ="
b10000000000000000000000000000000 T"
b10000000000000000000000000000000 k"
b10000000000000000000000000000000 $#
b10000000000000000000000000000000 ;#
b10000000000000000000000000000000 R#
b10000000000000000000000000000000 i#
b10000000000000000000000000000000 "$
b10000000000000000000000000000000 9$
b10000000000000000000000000000000 P$
b10000000000000000000000000000000 g$
b10000000000000000000000000000000 /
1)
#95000
04
b0 0
02
b0 6
b0 5
b0 '
b0 ,
b0 <
b0 (
b0 -
b0 ;
0%
b101000001 J
b111001000 I
b1100001001 F
0E
b111001000 R
b101000001 P
1T
b10 N
b0 e
b0 |
b0 5"
b0 L"
b0 c"
b0 z"
b0 3#
b0 J#
b0 a#
b0 x#
b0 1$
b0 H$
b0 _$
b0 v$
b0 B
b0 Q
b0 A
b0 O
0C
0S
b1 L
b1 K
b0x b
b0x y
b0x 2"
b0x I"
b0x `"
b0x w"
b0x 0#
b0x G#
b0x ^#
b0x u#
b0x .$
b0x E$
b0x \$
b0x s$
0)
#100000
b111001000 R
b101000001 P
1T
0#
03
0"
01
b0 $
b0 *
b0 8
b0 ?
b0 V
b0 m
b0 &"
b0 ="
b0 T"
b0 k"
b0 $#
b0 ;#
b0 R#
b0 i#
b0 "$
b0 9$
b0 P$
b0 g$
b0 /
1)
