HW3/CPU/cpu.vcd
$date
	Fri Nov 27 08:02:58 2020
$end
$version
	Icarus Verilog
$end
$timescale
	1ps
$end
$scope module test_cpu $end
$var wire 1 ! i_clk $end
$var wire 1 " i_rst_n $end
$var wire 64 # write_data [63:0] $end
$var wire 64 $ write_addr [63:0] $end
$var wire 64 % read_data [63:0] $end
$var wire 1 & i_valid_inst $end
$var wire 1 ' i_valid_addr $end
$var wire 32 ( i_inst [31:0] $end
$var wire 64 ) i_addr [63:0] $end
$var wire 1 * d_valid_data $end
$var wire 1 + MemWrite $end
$var wire 1 , MemRead $end
$var wire 1 - Finish $end
$var reg 1 . clk $end
$var reg 1 / rst_n $end
$var integer 32 0 error [31:0] $end
$var integer 32 1 i [31:0] $end
$scope module u_cpu $end
$var wire 1 . i_clk $end
$var wire 1 " i_rst_n $end
$var wire 64 2 o_d_addr [63:0] $end
$var wire 64 3 o_d_data [63:0] $end
$var wire 1 ' o_i_valid_addr $end
$var wire 64 4 o_i_addr [63:0] $end
$var wire 1 - o_finish $end
$var wire 1 + o_d_MemWrite $end
$var wire 1 , o_d_MemRead $end
$var wire 1 & i_i_valid_inst $end
$var wire 32 5 i_i_inst_cont [31:0] $end
$var wire 32 6 i_i_inst [31:0] $end
$var wire 1 * i_d_valid_data $end
$var wire 64 7 i_d_data_cont [63:0] $end
$var wire 64 8 i_d_data [63:0] $end
$var wire 1 9 Zero $end
$var wire 64 : WriteData [63:0] $end
$var wire 1 ; RegWrite $end
$var wire 64 < ReadData2 [63:0] $end
$var wire 64 = ReadData1 [63:0] $end
$var wire 64 > PC_next [63:0] $end
$var wire 64 ? PC1 [63:0] $end
$var wire 64 @ PC0 [63:0] $end
$var wire 64 A PC [63:0] $end
$var wire 1 B MemtoReg $end
$var wire 1 C InstNext $end
$var wire 64 D Imm_SignExt [63:0] $end
$var wire 1 E Branch $end
$var wire 64 F ALUresult [63:0] $end
$var wire 4 G ALUinst [3:0] $end
$var wire 64 H ALU_in2 [63:0] $end
$var wire 1 I ALUSrc $end
$var wire 2 J ALUOp [1:0] $end
$scope module u_ALU $end
$var wire 1 9 o_Zero $end
$var wire 64 K o_ALUresult [63:0] $end
$var wire 4 L i_ALUinst [3:0] $end
$var wire 64 M i_ALU_in2 [63:0] $end
$var wire 64 N i_ALU_in1 [63:0] $end
$var reg 64 O o_ALUresult_w [63:0] $end
$var reg 1 9 o_Zero_w $end
$upscope $end
$scope module u_ALUcontrol $end
$var wire 4 P i_inst_30_14_12 [3:0] $end
$var wire 4 Q o_ALUinst [3:0] $end
$var wire 2 R i_ALUOp [1:0] $end
$var reg 4 S o_ALUinst_w [3:0] $end
$upscope $end
$scope module u_Add_l $end
$var wire 64 T i_b [63:0] $end
$var wire 64 U o_sum [63:0] $end
$var wire 64 V i_a [63:0] $end
$upscope $end
$scope module u_Add_r $end
$var wire 64 W i_a [63:0] $end
$var wire 64 X i_b [63:0] $end
$var wire 64 Y o_sum [63:0] $end
$upscope $end
$scope module u_Control $end
$var wire 1 . i_clk $end
$var wire 7 Z i_inst_6_0 [6:0] $end
$var wire 1 " i_rst_n $end
$var wire 2 [ o_ALUOp [1:0] $end
$var wire 1 I o_ALUSrc $end
$var wire 1 - o_Finish $end
$var wire 1 , o_MemRead $end
$var wire 1 B o_MemtoReg $end
$var wire 1 ; o_RegWrite $end
$var wire 1 + o_MemWrite $end
$var wire 1 C o_InstNext $end
$var wire 1 E o_Branch $end
$var wire 1 * i_valid_ld $end
$var wire 1 & i_valid_inst $end
$var reg 1 \ i_valid_inst_r $end
$var reg 1 ] i_valid_inst_w $end
$var reg 2 ^ o_ALUOp_r [1:0] $end
$var reg 2 _ o_ALUOp_w [1:0] $end
$var reg 1 ` o_ALUSrc_r $end
$var reg 1 a o_ALUSrc_w $end
$var reg 1 E o_Branch_r $end
$var reg 1 b o_Branch_w $end
$var reg 1 c o_Finish_r $end
$var reg 1 d o_Finish_w $end
$var reg 1 C o_InstNext_r $end
$var reg 1 e o_InstNext_w $end
$var reg 1 f o_MemRead_r $end
$var reg 1 g o_MemRead_r_r $end
$var reg 1 h o_MemRead_w $end
$var reg 1 + o_MemWrite_r $end
$var reg 1 i o_MemWrite_w $end
$var reg 1 j o_MemtoReg_r $end
$var reg 1 k o_MemtoReg_w $end
$var reg 1 l o_RegWrite_r $end
$var reg 1 m o_RegWrite_w $end
$upscope $end
$scope module u_ImmGen $end
$var wire 64 n o_Imm_SignExt [63:0] $end
$var wire 32 o i_inst_31_0 [31:0] $end
$var reg 64 p o_Imm_SignExt_w [63:0] $end
$upscope $end
$scope module u_Mux_bl $end
$var wire 64 q i_in1 [63:0] $end
$var wire 1 I i_sel $end
$var wire 64 r o_out [63:0] $end
$var wire 64 s i_in0 [63:0] $end
$var reg 64 t o_out_w [63:0] $end
$upscope $end
$scope module u_Mux_br $end
$var wire 64 u i_in0 [63:0] $end
$var wire 1 B i_sel $end
$var wire 64 v o_out [63:0] $end
$var wire 64 w i_in1 [63:0] $end
$var reg 64 x o_out_w [63:0] $end
$upscope $end
$scope module u_Mux_ur $end
$var wire 64 y i_in0 [63:0] $end
$var wire 64 z i_in1 [63:0] $end
$var wire 1 { i_sel $end
$var wire 64 | o_out [63:0] $end
$var reg 64 } o_out_w [63:0] $end
$upscope $end
$scope module u_ProgCount $end
$var wire 1 ~ i_Branch_valid $end
$var wire 1 C i_InstNext $end
$var wire 64 !" i_PC_next [63:0] $end
$var wire 1 . i_clk $end
$var wire 1 " i_rst_n $end
$var wire 64 "" o_PC [63:0] $end
$var reg 64 #" o_PC_r [63:0] $end
$var reg 64 $" o_PC_w [63:0] $end
$upscope $end
$scope module u_RegFile $end
$var wire 5 %" i_ReadReg1 [4:0] $end
$var wire 5 &" i_ReadReg2 [4:0] $end
$var wire 1 ; i_RegWrite $end
$var wire 64 '" i_WriteData [63:0] $end
$var wire 5 (" i_WriteReg [4:0] $end
$var wire 1 . i_clk $end
$var wire 1 " i_rst_n $end
$var wire 64 )" o_Probe5 [63:0] $end
$var wire 64 *" o_Probe6 [63:0] $end
$var wire 64 +" o_Probe7 [63:0] $end
$var wire 64 ," o_ReadData1 [63:0] $end
$var wire 64 -" o_ReadData2 [63:0] $end
$var reg 64 ." o_ReadData1_w [63:0] $end
$var reg 64 /" o_ReadData2_w [63:0] $end
$var integer 32 0" i [31:0] $end
$upscope $end
$scope module u_data_mem_cont $end
$var wire 1 . i_clk $end
$var wire 1 " i_rst_n $end
$var wire 64 1" o_data_mem [63:0] $end
$var wire 1 * i_valid_mem $end
$var wire 64 2" i_data_mem [63:0] $end
$var reg 64 3" o_data_mem_r [63:0] $end
$var reg 64 4" o_data_mem_w [63:0] $end
$upscope $end
$scope module u_inst_cont $end
$var wire 1 . i_clk $end
$var wire 1 " i_rst_n $end
$var wire 32 5" o_inst_cont [31:0] $end
$var wire 32 6" i_inst [31:0] $end
$var reg 32 7" o_inst_cont_r [31:0] $end
$var reg 32 8" o_inst_cont_w [31:0] $end
$upscope $end
$upscope $end
$scope module u_data_mem $end
$var wire 1 , i_MemRead $end
$var wire 1 + i_MemWrite $end
$var wire 64 9" i_addr [63:0] $end
$var wire 1 ! i_clk $end
$var wire 64 :" i_data [63:0] $end
$var wire 1 " i_rst_n $end
$var wire 1 ;" i_valid $end
$var wire 64 <" o_data [63:0] $end
$var wire 1 * o_valid $end
$var reg 4 =" cs [3:0] $end
$var reg 4 >" ns [3:0] $end
$var reg 64 ?" o_data_r [63:0] $end
$var reg 64 @" o_data_w [63:0] $end
$var reg 1 A" o_valid_r $end
$var reg 1 B" o_valid_w $end
$var reg 1 C" temp_MemRead $end
$var reg 1 D" temp_MemRead_w $end
$var reg 1 E" temp_MemWrite $end
$var reg 1 F" temp_MemWrite_w $end
$var reg 64 G" temp_addr [63:0] $end
$var reg 64 H" temp_addr_w [63:0] $end
$var reg 64 I" temp_data [63:0] $end
$var reg 64 J" temp_data_w [63:0] $end
$var integer 32 K" i [31:0] $end
$upscope $end
$scope module u_inst_mem $end
$var wire 64 L" i_addr [63:0] $end
$var wire 1 ! i_clk $end
$var wire 1 " i_rst_n $end
$var wire 1 ' i_valid $end
$var wire 32 M" o_inst [31:0] $end
$var wire 1 & o_valid $end
$var reg 4 N" cs [3:0] $end
$var reg 4 O" ns [3:0] $end
$var reg 32 P" o_inst_r [31:0] $end
$var reg 32 Q" o_inst_w [31:0] $end
$var reg 1 R" o_valid_r $end
$var reg 1 S" o_valid_w $end
$var reg 64 T" temp_addr_r [63:0] $end
$var reg 64 U" temp_addr_w [63:0] $end
$upscope $end
$upscope $end
$enddefinitions $end
#0
$dumpvars
bx U"
bx T"
0S"
0R"
b0 Q"
b0 P"
bx O"
bx N"
b0 M"
bx L"
b10000000000 K"
bx J"
bx I"
bx H"
bx G"
xF"
xE"
xD"
xC"
0B"
xA"
b0 @"
bx ?"
bx >"
bx ="
bx <"
x;"
bx :"
bx 9"
bx 8"
bx 7"
b0 6"
bx 5"
bx 4"
bx 3"
bx 2"
bx 1"
b100000 0"
bx /"
bx ."
bx -"
bx ,"
bx +"
bx *"
bx )"
bx ("
bx '"
bx &"
bx %"
bx $"
bx #"
bx ""
bx !"
x~
bx }
bx |
x{
bx z
bx y
bx x
bx w
bx v
bx u
bx t
bx s
bx r
bx q
bx p
bx o
bx n
xm
xl
xk
xj
xi
xh
xg
xf
xe
xd
xc
xb
xa
x`
bx _
bx ^
x]
x\
bx [
bx Z
bx Y
bx0 X
bx W
bx V
bx U
b100 T
bx S
bx R
bx Q
bx P
bx O
bx N
bx M
bx L
bx K
bx J
xI
bx H
bx G
bx F
xE
bx D
xC
xB
bx A
bx @
bx ?
bx >
bx =
bx <
x;
bx :
x9
bx 8
bx 7
b0 6
bx 5
bx 4
bx 3
bx 2
bx 1
b0 0
1/
1.
x-
x,
x+
x*
bx )
b0 (
x'
0&
bx %
bx $
bx #
1"
1!
$end
#2500
b0 +"
b0 *"
b0 )"
b0 H
b0 M
b0 r
b0 t
b0 :
b0 v
b0 '"
b0 x
b100 $"
b0 U"
b0 #
b0 3
b0 :"
b0 <
b0 s
b0 -"
b0 /"
b0 =
b0 N
b0 ,"
b0 ."
0d
b1111111111111111111111111111111111111111111111111111111111111100 ?
b1111111111111111111111111111111111111111111111111111111111111100 Y
b1111111111111111111111111111111111111111111111111111111111111100 z
b0 X
b0 $
b0 2
b0 9"
b0 F
b0 K
b0 O
b0 u
09
b100 >
b100 |
b100 }
b100 !"
b0 )
b0 4
b0 L"
b0 8"
b0 P
b0 ("
b0 &"
b0 %"
b0 Z
b0 D
b0 n
b0 p
b0 q
0;"
b1111 G
b1111 L
b1111 Q
b1111 S
0,
0~
0{
0]
0F"
0D"
b0 J"
b0 H"
b0 >"
0e
b0 _
0b
0i
0h
0m
0k
0a
b0 4"
b1 O"
b100 @
b100 U
b100 y
b1111111111111111111111111111111111111111111111111111111111111100 W
b0 A
b0 V
b0 ""
b0 #"
b0 7
b0 w
b0 1"
b0 3"
b0 5
b0 o
b0 5"
b0 7"
0-
0c
1'
1C
0;
0l
0I
0`
0+
b0 J
b0 R
b0 [
b0 ^
0B
0j
0g
0f
0E
0\
0E"
0C"
b0 I"
b0 G"
b0 ="
b0 %
b0 8
b0 2"
b0 <"
b0 ?"
0*
0A"
b0 T"
b0 N"
b100000 0"
b10000000000 K"
0"
0/
#5000
0!
0.
#10000
b100000 0"
b10000000000 K"
1!
1.
#15000
0!
0.
#20000
b100000 0"
b10000000000 K"
1!
1.
#25000
0!
0.
#30000
b100000 0"
b10000000000 K"
1!
1.
#35000
0!
0.
#40000
b100000 0"
b10000000000 K"
1!
1.
#45000
0!
0.
#50000
b100 )
b100 4
b100 L"
b1000 >
b1000 |
b1000 }
b1000 !"
b10 O"
0'
0C
b1000 @
b1000 U
b1000 y
b0 ?
b0 Y
b0 z
b0 W
b100 A
b100 V
b100 ""
b100 #"
b1 N"
b100000 0"
b10000000000 K"
1!
1.
1"
1/
#55000
0!
0.
#60000
b11 O"
b10 N"
b100000 0"
b10000000000 K"
1!
1.
#65000
0!
0.
#70000
b100 O"
b11 N"
b100000 0"
b10000000000 K"
1!
1.
#75000
0!
0.
#80000
b101 O"
b100 N"
b100000 0"
b10000000000 K"
1!
1.
#85000
0!
0.
#90000
b0 O"
b111101100000000001010010011 Q"
1S"
b101 N"
b100000 0"
b10000000000 K"
1!
1.
#95000
0!
0.
#100000
b0 Q"
0S"
b111101100000000001010010011 8"
1]
b0 N"
b111101100000000001010010011 (
b111101100000000001010010011 6
b111101100000000001010010011 6"
b111101100000000001010010011 M"
b111101100000000001010010011 P"
1&
1R"
b100000 0"
b10000000000 K"
1!
1.
#105000
0!
0.
#110000
b11110110 ?
b11110110 Y
b11110110 z
b11110110 X
0]
1e
b11 _
1m
1a
b101 ("
b11011 &"
b10011 Z
b1111011 D
b1111011 n
b1111011 p
b1111011 q
1\
b111101100000000001010010011 5
b111101100000000001010010011 o
b111101100000000001010010011 5"
b111101100000000001010010011 7"
b0 (
b0 6
b0 6"
b0 M"
b0 P"
0&
0R"
b100000 0"
b10000000000 K"
1!
1.
#115000
0!
0.
#120000
b1111011 )"
b1111011 :
b1111011 v
b1111011 '"
b1111011 x
b1111011 $
b1111011 2
b1111011 9"
b1111011 F
b1111011 K
b1111011 O
b1111011 u
b1 O"
b100 U"
b1000 $"
b1111011 H
b1111011 M
b1111011 r
b1111011 t
b10 G
b10 L
b10 Q
b10 S
0e
b0 _
0m
0a
1'
1C
1;
1l
1I
1`
b11 J
b11 R
b11 [
b11 ^
0\
b100000 0"
b10000000000 K"
1!
1.
#125000
0!
0.
#130000
b0 :
b0 v
b0 '"
b0 x
b0 $
b0 2
b0 9"
b0 F
b0 K
b0 O
b0 u
b0 H
b0 M
b0 r
b0 t
b1111 G
b1111 L
b1111 Q
b1111 S
b1000 )
b1000 4
b1000 L"
b1100 >
b1100 |
b1100 }
b1100 !"
b10 O"
0'
0C
0;
0l
0I
0`
b0 J
b0 R
b0 [
b0 ^
b1100 @
b1100 U
b1100 y
b11111010 ?
b11111010 Y
b11111010 z
b100 W
b1000 A
b1000 V
b1000 ""
b1000 #"
b100 T"
b1 N"
b100000 0"
b10000000000 K"
1!
1.
#135000
0!
0.
#140000
b11 O"
b10 N"
b100000 0"
b10000000000 K"
1!
1.
#145000
0!
0.
#150000
b100 O"
b11 N"
b100000 0"
b10000000000 K"
1!
1.
#155000
0!
0.
#160000
b101 O"
b100 N"
b100000 0"
b10000000000 K"
1!
1.
#165000
0!
0.
#170000
b0 O"
b11100100000000000001100010011 Q"
1S"
b101 N"
b100000 0"
b10000000000 K"
1!
1.
#175000
0!
0.
#180000
b0 Q"
0S"
b11100100000000000001100010011 8"
1]
b0 N"
b11100100000000000001100010011 (
b11100100000000000001100010011 6
b11100100000000000001100010011 6"
b11100100000000000001100010011 M"
b11100100000000000001100010011 P"
1&
1R"
b100000 0"
b10000000000 K"
1!
1.
#185000
0!
0.
#190000
b1110010100 ?
b1110010100 Y
b1110010100 z
b1110010000 X
0]
1e
b11 _
1m
1a
b110 ("
b1000 &"
b111001000 D
b111001000 n
b111001000 p
b111001000 q
1\
b11100100000000000001100010011 5
b11100100000000000001100010011 o
b11100100000000000001100010011 5"
b11100100000000000001100010011 7"
b0 (
b0 6
b0 6"
b0 M"
b0 P"
0&
0R"
b100000 0"
b10000000000 K"
1!
1.
#195000
0!
0.
#200000
b111001000 *"
b111001000 :
b111001000 v
b111001000 '"
b111001000 x
b111001000 $
b111001000 2
b111001000 9"
b111001000 F
b111001000 K
b111001000 O
b111001000 u
b1 O"
b1000 U"
b1100 $"
b111001000 H
b111001000 M
b111001000 r
b111001000 t
b10 G
b10 L
b10 Q
b10 S
0e
b0 _
0m
0a
1'
1C
1;
1l
1I
1`
b11 J
b11 R
b11 [
b11 ^
0\
b100000 0"
b10000000000 K"
1!
1.
#205000
0!
0.
#210000
b0 :
b0 v
b0 '"
b0 x
b0 $
b0 2
b0 9"
b0 F
b0 K
b0 O
b0 u
b0 H
b0 M
b0 r
b0 t
b1111 G
b1111 L
b1111 Q
b1111 S
b1100 )
b1100 4
b1100 L"
b10000 >
b10000 |
b10000 }
b10000 !"
b10 O"
0'
0C
0;
0l
0I
0`
b0 J
b0 R
b0 [
b0 ^
b10000 @
b10000 U
b10000 y
b1110011000 ?
b1110011000 Y
b1110011000 z
b1000 W
b1100 A
b1100 V
b1100 ""
b1100 #"
b1000 T"
b1 N"
b100000 0"
b10000000000 K"
1!
1.
#215000
0!
0.
#220000
b11 O"
b10 N"
b100000 0"
b10000000000 K"
1!
1.
#225000
0!
0.
#230000
b100 O"
b11 N"
b100000 0"
b10000000000 K"
1!
1.
#235000
0!
0.
#240000
b101 O"
b100 N"
b100000 0"
b10000000000 K"
1!
1.
#245000
0!
0.
#250000
b0 O"
b111101100000000001110010011 Q"
1S"
b101 N"
b100000 0"
b10000000000 K"
1!
1.
#255000
0!
0.
#260000
b0 Q"
0S"
b111101100000000001110010011 8"
1]
b0 N"
b111101100000000001110010011 (
b111101100000000001110010011 6
b111101100000000001110010011 6"
b111101100000000001110010011 M"
b111101100000000001110010011 P"
1&
1R"
b100000 0"
b10000000000 K"
1!
1.
#265000
0!
0.
#270000
b11111110 ?
b11111110 Y
b11111110 z
b11110110 X
0]
1e
b11 _
1m
1a
b111 ("
b11011 &"
b1111011 D
b1111011 n
b1111011 p
b1111011 q
1\
b111101100000000001110010011 5
b111101100000000001110010011 o
b111101100000000001110010011 5"
b111101100000000001110010011 7"
b0 (
b0 6
b0 6"
b0 M"
b0 P"
0&
0R"
b100000 0"
b10000000000 K"
1!
1.
#275000
0!
0.
#280000
b1111011 +"
b1111011 :
b1111011 v
b1111011 '"
b1111011 x
b1111011 $
b1111011 2
b1111011 9"
b1111011 F
b1111011 K
b1111011 O
b1111011 u
b1 O"
b1100 U"
b10000 $"
b1111011 H
b1111011 M
b1111011 r
b1111011 t
b10 G
b10 L
b10 Q
b10 S
0e
b0 _
0m
0a
1'
1C
1;
1l
1I
1`
b11 J
b11 R
b11 [
b11 ^
0\
b100000 0"
b10000000000 K"
1!
1.
#285000
0!
0.
#290000
b0 :
b0 v
b0 '"
b0 x
b0 $
b0 2
b0 9"
b0 F
b0 K
b0 O
b0 u
b0 H
b0 M
b0 r
b0 t
b1111 G
b1111 L
b1111 Q
b1111 S
b10000 )
b10000 4
b10000 L"
b10100 >
b10100 |
b10100 }
b10100 !"
b10 O"
0'
0C
0;
0l
0I
0`
b0 J
b0 R
b0 [
b0 ^
b10100 @
b10100 U
b10100 y
b100000010 ?
b100000010 Y
b100000010 z
b1100 W
b10000 A
b10000 V
b10000 ""
b10000 #"
b1100 T"
b1 N"
b100000 0"
b10000000000 K"
1!
1.
#295000
0!
0.
#300000
b11 O"
b10 N"
b100000 0"
b10000000000 K"
1!
1.
#305000
0!
0.
#310000
b100 O"
b11 N"
b100000 0"
b10000000000 K"
1!
1.
#315000
0!
0.
#320000
b101 O"
b100 N"
b100000 0"
b10000000000 K"
1!
1.
#325000
0!
0.
#330000
b0 O"
b11000101001011001100011 Q"
1S"
b101 N"
b100000 0"
b10000000000 K"
1!
1.
#335000
0!
0.
#340000
b0 Q"
0S"
b11000101001011001100011 8"
1]
b0 N"
b11000101001011001100011 (
b11000101001011001100011 6
b11000101001011001100011 6"
b11000101001011001100011 M"
b11000101001011001100011 P"
1&
1R"
b100000 0"
b10000000000 K"
1!
1.
#345000
0!
0.
#350000
b111001000 H
b111001000 M
b111001000 r
b111001000 t
b111001000 #
b111001000 3
b111001000 :"
b111001000 <
b111001000 s
b111001000 -"
b111001000 /"
b1111011 =
b1111011 N
b1111011 ,"
b1111011 ."
b11000 ?
b11000 Y
b11000 z
b1100 X
0]
1e
b1 _
1b
b1 P
b1100 ("
b110 &"
b101 %"
b1100011 Z
b110 D
b110 n
b110 p
b110 q
1\
b11000101001011001100011 5
b11000101001011001100011 o
b11000101001011001100011 5"
b11000101001011001100011 7"
b0 (
b0 6
b0 6"
b0 M"
b0 P"
0&
0R"
b100000 0"
b10000000000 K"
1!
1.
#355000
0!
0.
#360000
b11000 )
b11000 4
b11000 L"
b11000 >
b11000 |
b11000 }
b11000 !"
1~
1{
b1111111111111111111111111111111111111111111111111111111010110011 :
b1111111111111111111111111111111111111111111111111111111010110011 v
b1111111111111111111111111111111111111111111111111111111010110011 '"
b1111111111111111111111111111111111111111111111111111111010110011 x
19
b1111111111111111111111111111111111111111111111111111111010110011 $
b1111111111111111111111111111111111111111111111111111111010110011 2
b1111111111111111111111111111111111111111111111111111111010110011 9"
b1111111111111111111111111111111111111111111111111111111010110011 F
b1111111111111111111111111111111111111111111111111111111010110011 K
b1111111111111111111111111111111111111111111111111111111010110011 O
b1111111111111111111111111111111111111111111111111111111010110011 u
b1 O"
b11000 U"
b11100 $"
b111 G
b111 L
b111 Q
b111 S
0e
b0 _
0b
1'
1C
b1 J
b1 R
b1 [
b1 ^
1E
0\
b100000 0"
b10000000000 K"
1!
1.
#365000
0!
0.
#370000
b0 :
b0 v
b0 '"
b0 x
b0 $
b0 2
b0 9"
b0 F
b0 K
b0 O
b0 u
09
b11100 )
b11100 4
b11100 L"
b1111 G
b1111 L
b1111 Q
b1111 S
0~
0{
b100000 >
b100000 |
b100000 }
b100000 !"
b10 O"
0'
0C
b0 J
b0 R
b0 [
b0 ^
0E
b100000 @
b100000 U
b100000 y
b100100 ?
b100100 Y
b100100 z
b11000 W
b11100 A
b11100 V
b11100 ""
b11100 #"
b11000 T"
b1 N"
b100000 0"
b10000000000 K"
1!
1.
#375000
0!
0.
#380000
b11 O"
b10 N"
b100000 0"
b10000000000 K"
1!
1.
#385000
0!
0.
#390000
b100 O"
b11 N"
b100000 0"
b10000000000 K"
1!
1.
#395000
0!
0.
#400000
b101 O"
b100 N"
b100000 0"
b10000000000 K"
1!
1.
#405000
0!
0.
#410000
b0 O"
b10010101010011000000100011 Q"
1S"
b101 N"
b100000 0"
b10000000000 K"
1!
1.
#415000
0!
0.
#420000
b0 Q"
0S"
b10010101010011000000100011 8"
1]
b0 N"
b10010101010011000000100011 (
b10010101010011000000100011 6
b10010101010011000000100011 6"
b10010101010011000000100011 M"
b10010101010011000000100011 P"
1&
1R"
b100000 0"
b10000000000 K"
1!
1.
#425000
0!
0.
#430000
b1111011 :
b1111011 v
b1111011 '"
b1111011 x
b1111011 H
b1111011 M
b1111011 r
b1111011 t
b1111011 $
b1111011 2
b1111011 9"
b1111011 F
b1111011 K
b1111011 O
b1111011 u
b10 G
b10 L
b10 Q
b10 S
b1111011 #
b1111011 3
b1111011 :"
b1111011 <
b1111011 s
b1111011 -"
b1111011 /"
b0 =
b0 N
b0 ,"
b0 ."
b1011000 ?
b1011000 Y
b1011000 z
b1000000 X
0]
1e
1i
1a
b11 P
b0 ("
b101 &"
b1010 %"
b100011 Z
b100000 D
b100000 n
b100000 p
b100000 q
1\
b10010101010011000000100011 5
b10010101010011000000100011 o
b10010101010011000000100011 5"
b10010101010011000000100011 7"
b0 (
b0 6
b0 6"
b0 M"
b0 P"
0&
0R"
b100000 0"
b10000000000 K"
1!
1.
#435000
0!
0.
#440000
b100000 :
b100000 v
b100000 '"
b100000 x
b100000 $
b100000 2
b100000 9"
b100000 F
b100000 K
b100000 O
b100000 u
b1 >"
1F"
b1111011 J"
b100000 H"
b1 O"
b11100 U"
b100000 $"
b100000 H
b100000 M
b100000 r
b100000 t
1;"
0e
0i
0a
1'
1C
1I
1`
1+
0\
b100000 0"
b10000000000 K"
1!
1.
#445000
0!
0.
#450000
b1111011 :
b1111011 v
b1111011 '"
b1111011 x
b1111011 $
b1111011 2
b1111011 9"
b1111011 F
b1111011 K
b1111011 O
b1111011 u
b1111011 H
b1111011 M
b1111011 r
b1111011 t
0;"
b100000 )
b100000 4
b100000 L"
b100100 >
b100100 |
b100100 }
b100100 !"
b10 O"
1F"
b10 >"
0'
0C
0I
0`
0+
b100100 @
b100100 U
b100100 y
b1011100 ?
b1011100 Y
b1011100 z
b11100 W
b100000 A
b100000 V
b100000 ""
b100000 #"
b11100 T"
b1 N"
1E"
b1111011 I"
b100000 G"
b1 ="
b100000 0"
b10000000000 K"
1!
1.
#455000
0!
0.
#460000
b11 >"
b11 O"
b10 ="
b10 N"
b100000 0"
b10000000000 K"
1!
1.
#465000
0!
0.
#470000
b100 O"
b100 >"
b11 N"
b11 ="
b100000 0"
b10000000000 K"
1!
1.
#475000
0!
0.
#480000
b101 >"
b101 O"
b100 ="
b100 N"
b100000 0"
b10000000000 K"
1!
1.
#485000
0!
0.
#490000
b0 O"
b11000101000100001100011 Q"
1S"
b110 >"
b101 N"
b101 ="
b100000 0"
b10000000000 K"
1!
1.
#495000
0!
0.
#500000
b111 >"
b0 Q"
0S"
b11000101000100001100011 8"
1]
b110 ="
b0 N"
b11000101000100001100011 (
b11000101000100001100011 6
b11000101000100001100011 6"
b11000101000100001100011 M"
b11000101000100001100011 P"
1&
1R"
b100000 0"
b10000000000 K"
1!
1.
#505000
0!
0.
#510000
b0 :
b0 v
b0 '"
b0 x
b111001000 H
b111001000 M
b111001000 r
b111001000 t
b0 $
b0 2
b0 9"
b0 F
b0 K
b0 O
b0 u
b1111 G
b1111 L
b1111 Q
b1111 S
b111001000 #
b111001000 3
b111001000 :"
b111001000 <
b111001000 s
b111001000 -"
b111001000 /"
b1111011 =
b1111011 N
b1111011 ,"
b1111011 ."
b101100 ?
b101100 Y
b101100 z
b10000 X
0]
1e
b1 _
1b
b0 P
b10000 ("
b110 &"
b101 %"
b1100011 Z
b1000 D
b1000 n
b1000 p
b1000 q
b0 >"
b100000 H"
b1111011 J"
1F"
1\
b11000101000100001100011 5
b11000101000100001100011 o
b11000101000100001100011 5"
b11000101000100001100011 7"
b0 (
b0 6
b0 6"
b0 M"
b0 P"
0&
0R"
b111 ="
b100000 0"
b10000000000 K"
1!
1.
#515000
0!
0.
#520000
b1111111111111111111111111111111111111111111111111111111010110011 :
b1111111111111111111111111111111111111111111111111111111010110011 v
b1111111111111111111111111111111111111111111111111111111010110011 '"
b1111111111111111111111111111111111111111111111111111111010110011 x
b1111111111111111111111111111111111111111111111111111111010110011 $
b1111111111111111111111111111111111111111111111111111111010110011 2
b1111111111111111111111111111111111111111111111111111111010110011 9"
b1111111111111111111111111111111111111111111111111111111010110011 F
b1111111111111111111111111111111111111111111111111111111010110011 K
b1111111111111111111111111111111111111111111111111111111010110011 O
b1111111111111111111111111111111111111111111111111111111010110011 u
b1 O"
b100000 U"
b100100 $"
b110 G
b110 L
b110 Q
b110 S
0e
b0 _
0b
1'
1C
b1 J
b1 R
b1 [
b1 ^
1E
0\
b0 ="
b100000 H"
b1111011 J"
1F"
b100000 0"
b10000000000 K"
1!
1.
#525000
0!
0.
#530000
b0 :
b0 v
b0 '"
b0 x
b0 $
b0 2
b0 9"
b0 F
b0 K
b0 O
b0 u
b1111 G
b1111 L
b1111 Q
b1111 S
b100100 )
b100100 4
b100100 L"
b101000 >
b101000 |
b101000 }
b101000 !"
b10 O"
0'
0C
b0 J
b0 R
b0 [
b0 ^
0E
b101000 @
b101000 U
b101000 y
b110000 ?
b110000 Y
b110000 z
b100000 W
b100100 A
b100100 V
b100100 ""
b100100 #"
b100000 T"
b1 N"
b100000 0"
b10000000000 K"
1!
1.
#535000
0!
0.
#540000
b11 O"
b10 N"
b100000 0"
b10000000000 K"
1!
1.
#545000
0!
0.
#550000
b100 O"
b11 N"
b100000 0"
b10000000000 K"
1!
1.
#555000
0!
0.
#560000
b101 O"
b100 N"
b100000 0"
b10000000000 K"
1!
1.
#565000
0!
0.
#570000
b0 O"
b10011001010011010000100011 Q"
1S"
b101 N"
b100000 0"
b10000000000 K"
1!
1.
#575000
0!
0.
#580000
b0 Q"
0S"
b10011001010011010000100011 8"
1]
b0 N"
b10011001010011010000100011 (
b10011001010011010000100011 6
b10011001010011010000100011 6"
b10011001010011010000100011 M"
b10011001010011010000100011 P"
1&
1R"
b100000 0"
b10000000000 K"
1!
1.
#585000
0!
0.
#590000
b111001000 :
b111001000 v
b111001000 '"
b111001000 x
b111001000 $
b111001000 2
b111001000 9"
b111001000 F
b111001000 K
b111001000 O
b111001000 u
b10 G
b10 L
b10 Q
b10 S
b0 =
b0 N
b0 ,"
b0 ."
b1110000 ?
b1110000 Y
b1110000 z
b1010000 X
0]
1e
1i
1a
b11 P
b1000 ("
b1010 %"
b100011 Z
b101000 D
b101000 n
b101000 p
b101000 q
1\
b10011001010011010000100011 5
b10011001010011010000100011 o
b10011001010011010000100011 5"
b10011001010011010000100011 7"
b0 (
b0 6
b0 6"
b0 M"
b0 P"
0&
0R"
b100000 0"
b10000000000 K"
1!
1.
#595000
0!
0.
#600000
b101000 :
b101000 v
b101000 '"
b101000 x
b101000 $
b101000 2
b101000 9"
b101000 F
b101000 K
b101000 O
b101000 u
b1 >"
b111001000 J"
b101000 H"
b1 O"
b100100 U"
b101000 $"
b101000 H
b101000 M
b101000 r
b101000 t
1;"
0e
0i
0a
1'
1C
1I
1`
1+
0\
b100000 0"
b10000000000 K"
1!
1.
#605000
0!
0.
#610000
b111001000 :
b111001000 v
b111001000 '"
b111001000 x
b111001000 $
b111001000 2
b111001000 9"
b111001000 F
b111001000 K
b111001000 O
b111001000 u
b111001000 H
b111001000 M
b111001000 r
b111001000 t
0;"
b101000 )
b101000 4
b101000 L"
b101100 >
b101100 |
b101100 }
b101100 !"
b10 O"
1F"
b10 >"
0'
0C
0I
0`
0+
b101100 @
b101100 U
b101100 y
b1110100 ?
b1110100 Y
b1110100 z
b100100 W
b101000 A
b101000 V
b101000 ""
b101000 #"
b100100 T"
b1 N"
b111001000 I"
b101000 G"
b1 ="
b100000 0"
b10000000000 K"
1!
1.
#615000
0!
0.
