HW3/FPU/fpu.vcd
$date
	Wed Nov 25 23:47:20 2020
$end
$version
	Icarus Verilog
$end
$timescale
	1ps
$end
$scope module test_fpu $end
$var wire 1 ! rst_n $end
$var wire 1 " ovalid $end
$var wire 32 # odata [31:0] $end
$var wire 1 $ ivalid $end
$var wire 1 % inst $end
$var wire 32 & idata_b [31:0] $end
$var wire 32 ' idata_a [31:0] $end
$var wire 1 ( clk $end
$scope module u_clk $end
$var reg 1 ( clk $end
$var reg 1 ! rst_n $end
$upscope $end
$scope module u_fpu $end
$var wire 1 ( i_clk $end
$var wire 1 ! i_rst_n $end
$var wire 1 ) o_valid_mul $end
$var wire 1 * o_valid_add $end
$var wire 1 " o_valid $end
$var wire 32 + o_data_mul [31:0] $end
$var wire 32 , o_data_add [31:0] $end
$var wire 32 - o_data [31:0] $end
$var wire 1 $ i_valid $end
$var wire 1 % i_inst $end
$var wire 32 . i_data_b [31:0] $end
$var wire 32 / i_data_a [31:0] $end
$scope module u_ADD $end
$var wire 1 ( i_clk $end
$var wire 1 ! i_rst_n $end
$var wire 1 * o_valid $end
$var wire 32 0 o_data [31:0] $end
$var wire 1 $ i_valid $end
$var wire 32 1 i_data_b [31:0] $end
$var wire 32 2 i_data_a [31:0] $end
$var reg 8 3 e_a [7:0] $end
$var reg 8 4 e_b [7:0] $end
$var reg 8 5 e_data [7:0] $end
$var reg 8 6 e_diff [7:0] $end
$var reg 27 7 f_a [26:0] $end
$var reg 27 8 f_b [26:0] $end
$var reg 23 9 f_data [22:0] $end
$var reg 8 : i_e_a [7:0] $end
$var reg 8 ; i_e_b [7:0] $end
$var reg 27 < i_f_a [26:0] $end
$var reg 27 = i_f_b [26:0] $end
$var reg 1 > i_s_a $end
$var reg 1 ? i_s_b $end
$var reg 32 @ o_data_r [31:0] $end
$var reg 32 A o_data_w [31:0] $end
$var reg 1 * o_valid_r $end
$var reg 1 B o_valid_w $end
$var reg 1 C s_a $end
$var reg 1 D s_b $end
$var reg 1 E s_data $end
$var reg 28 F sum [27:0] $end
$upscope $end
$scope module u_MUL $end
$var wire 1 ( i_clk $end
$var wire 1 ! i_rst_n $end
$var wire 1 ) o_valid $end
$var wire 32 G o_data [31:0] $end
$var wire 1 $ i_valid $end
$var wire 32 H i_data_b [31:0] $end
$var wire 32 I i_data_a [31:0] $end
$var reg 8 J e_a [7:0] $end
$var reg 8 K e_b [7:0] $end
$var reg 8 L e_data [7:0] $end
$var reg 8 M e_diff [7:0] $end
$var reg 27 N f_a [26:0] $end
$var reg 27 O f_b [26:0] $end
$var reg 23 P f_data [22:0] $end
$var reg 8 Q i_e_a [7:0] $end
$var reg 8 R i_e_b [7:0] $end
$var reg 27 S i_f_a [26:0] $end
$var reg 27 T i_f_b [26:0] $end
$var reg 1 U i_s_a $end
$var reg 1 V i_s_b $end
$var reg 54 W mul [53:0] $end
$var reg 32 X o_data_r [31:0] $end
$var reg 32 Y o_data_w [31:0] $end
$var reg 1 ) o_valid_r $end
$var reg 1 Z o_valid_w $end
$var reg 1 [ s_a $end
$var reg 1 \ s_b $end
$var reg 1 ] s_data $end
$upscope $end
$upscope $end
$scope module u_fpu_test $end
$var wire 1 ( i_clk $end
$var wire 32 ^ i_data [31:0] $end
$var wire 1 ! i_rst_n $end
$var wire 1 " i_valid $end
$var reg 2 _ cs [1:0] $end
$var reg 2 ` ns [1:0] $end
$var reg 32 a o_data_a [31:0] $end
$var reg 32 b o_data_b [31:0] $end
$var reg 1 % o_inst $end
$var reg 1 $ o_valid $end
$var integer 32 c total_error [31:0] $end
$scope begin test_unit[0] $end
$scope module inst $end
$var wire 1 ( i_clk $end
$var wire 32 d i_data [31:0] $end
$var wire 1 ! i_rst_n $end
$var wire 1 e i_start $end
$var wire 1 " i_valid $end
$var wire 32 f o_data_a [31:0] $end
$var wire 32 g o_data_b [31:0] $end
$var wire 1 h o_valid $end
$var wire 1 i test_finish $end
$var wire 32 j output_data [31:0] $end
$var wire 1 k o_inst $end
$var wire 1 l o_done $end
$var wire 32 m input_B [31:0] $end
$var wire 32 n input_A [31:0] $end
$var reg 3 o cs_ [2:0] $end
$var reg 4 p idx_r [3:0] $end
$var reg 4 q idx_w [3:0] $end
$var reg 3 r ns_ [2:0] $end
$var reg 32 s o_data_a_r [31:0] $end
$var reg 32 t o_data_a_w [31:0] $end
$var reg 32 u o_data_b_r [31:0] $end
$var reg 32 v o_data_b_w [31:0] $end
$var reg 1 w o_valid_r $end
$var reg 1 x o_valid_w $end
$var integer 32 y error [31:0] $end
$upscope $end
$upscope $end
$scope begin test_unit[1] $end
$scope module inst $end
$var wire 1 ( i_clk $end
$var wire 32 z i_data [31:0] $end
$var wire 1 ! i_rst_n $end
$var wire 1 { i_start $end
$var wire 1 " i_valid $end
$var wire 32 | o_data_a [31:0] $end
$var wire 32 } o_data_b [31:0] $end
$var wire 1 ~ o_valid $end
$var wire 1 !" test_finish $end
$var wire 32 "" output_data [31:0] $end
$var wire 1 #" o_inst $end
$var wire 1 $" o_done $end
$var wire 32 %" input_B [31:0] $end
$var wire 32 &" input_A [31:0] $end
$var reg 3 '" cs_ [2:0] $end
$var reg 4 (" idx_r [3:0] $end
$var reg 4 )" idx_w [3:0] $end
$var reg 3 *" ns_ [2:0] $end
$var reg 32 +" o_data_a_r [31:0] $end
$var reg 32 ," o_data_a_w [31:0] $end
$var reg 32 -" o_data_b_r [31:0] $end
$var reg 32 ." o_data_b_w [31:0] $end
$var reg 1 /" o_valid_r $end
$var reg 1 0" o_valid_w $end
$var integer 32 1" error [31:0] $end
$upscope $end
$upscope $end
$upscope $end
$upscope $end
$enddefinitions $end
#0
$dumpvars
bx 1"
00"
x/"
b0 ."
bx -"
b0 ,"
bx +"
bx *"
bx )"
bx ("
bx '"
bx &"
bx %"
x$"
x#"
bx ""
x!"
x~
bx }
bx |
x{
bx z
bx y
0x
xw
b0 v
bx u
b0 t
bx s
bx r
bx q
bx p
bx o
bx n
bx m
xl
xk
bx j
xi
xh
bx g
bx f
xe
bx d
b0 c
bx b
bx a
bx `
bx _
bx ^
x]
x\
x[
0Z
b0 Y
bx X
bx W
xV
xU
bx T
bx S
bx R
bx Q
bx P
bx O
bx N
bx M
bx L
bx K
bx J
bx I
bx H
bx G
bx F
xE
xD
xC
0B
b0 A
bx @
x?
x>
bx =
bx <
bx ;
bx :
bx 9
bx 8
bx 7
bx 6
bx 5
bx 4
bx 3
bx 2
bx 1
bx 0
bx /
bx .
bx -
bx ,
bx +
x*
x)
1(
bx '
bx &
x%
0$
bx #
x"
1!
$end
#2500
b0 #
b0 -
b0 ^
b0 d
b0 z
0"
b111111100000000000000000000000 n
b111111100000000000000000000000 m
b1000000000000000000000000000000 j
0k
b0 q
b0x r
b111111101100000000000000000000 &"
b111111000000000000000000000000 %"
b111111001100000000000000000000 ""
1#"
b0 )"
b0x *"
b1 `
b0 +
b0 G
b0 X
0)
b0 ,
b0 0
b0 @
0*
b0 g
b0 u
b0 f
b0 s
0h
0w
0i
b0 p
0l
b0 o
b0 }
b0 -"
b0 |
b0 +"
0~
0/"
0!"
b0 ("
0$"
b0 '"
b0 _
0!
#5000
b1 `
b0 y
b0 1"
0(
#10000
1(
#15000
0(
#20000
1(
#25000
0(
#30000
1(
#35000
0(
#40000
1(
#45000
0(
#50000
1(
1!
#55000
b0 r
b0 *"
0%
b0 &
b0 .
b0 1
b0 H
b0 b
b0 '
b0 /
b0 2
b0 I
b0 a
1e
b0x o
b0x '"
b1 _
0(
#60000
1(
#65000
b0x *"
b1 r
b0 '"
b0 o
0(
#70000
1(
#75000
b111111100000000000000000000000 v
b111111100000000000000000000000 t
1x
b10 r
b0 *"
b1 o
b0x '"
0(
#80000
1(
#85000
b1000000000000000000000000000000 A
b0 9
b10000000 5
0E
b1000000000000000000000000000 F
b100000000000000000000000000 7
b100000000000000000000000000 8
b1111111 3
b1111111 4
b0 6
0D
0C
b100000000000000000000000000 =
b100000000000000000000000000 <
b1111111 ;
b1111111 :
0?
0>
1B
b111111100000000000000000000000 Y
b0 P
b1111111 L
b10000000000000000000000000000000000000000000000000000 W
0]
b100000000000000000000000000 N
b100000000000000000000000000 O
b1111111 J
b1111111 K
b0 M
0\
0[
b100000000000000000000000000 T
b100000000000000000000000000 S
b1111111 R
b1111111 Q
0V
0U
1Z
b0x *"
1$
b111111100000000000000000000000 &
b111111100000000000000000000000 .
b111111100000000000000000000000 1
b111111100000000000000000000000 H
b111111100000000000000000000000 b
b111111100000000000000000000000 '
b111111100000000000000000000000 /
b111111100000000000000000000000 2
b111111100000000000000000000000 I
b111111100000000000000000000000 a
b0 v
b0 t
0x
b0 '"
b111111100000000000000000000000 g
b111111100000000000000000000000 u
b111111100000000000000000000000 f
b111111100000000000000000000000 s
1h
1w
b10 o
0(
#90000
b1 q
b1 r
b1000000000000000000000000000000 #
b1000000000000000000000000000000 -
b1000000000000000000000000000000 ^
b1000000000000000000000000000000 d
b1000000000000000000000000000000 z
1"
b1000000000000000000000000000000 ,
b1000000000000000000000000000000 0
b1000000000000000000000000000000 @
1*
b111111100000000000000000000000 +
b111111100000000000000000000000 G
b111111100000000000000000000000 X
1)
1(
#95000
0B
b0 A
0Z
b0 Y
b0 &
b0 .
b0 1
b0 H
b0 b
b0 '
b0 /
b0 2
b0 I
b0 a
0$
b111111101100000000000000000000 n
b111111000000000000000000000000 m
b111111111100000000000000000000 j
b111111000000000000000000000000 v
b111111101100000000000000000000 t
1x
b10 r
b0 *"
b0 g
b0 u
b0 f
b0 s
0h
0w
b1 p
b1 o
b0x '"
0(
#100000
b111111000000000000000000000000 v
b111111101100000000000000000000 t
1x
b0 #
b0 -
b0 ^
b0 d
b0 z
0"
b0 +
b0 G
b0 X
0)
b0 ,
b0 0
b0 @
0*
1(
#105000
b111111111100000000000000000000 A
b11100000000000000000000 9
b1111111 5
b111100000000000000000000000 F
b10000000000000000000000000 8
b101100000000000000000000000 7
b1 6
b101100000000000000000000000 <
b1111110 ;
1B
b111111001100000000000000000000 Y
b1100000000000000000000 P
b1111110 L
b10110000000000000000000000000000000000000000000000000 W
b101100000000000000000000000 N
b1111110 K
b101100000000000000000000000 S
b1111110 R
1Z
b0x *"
1$
b111111000000000000000000000000 &
b111111000000000000000000000000 .
b111111000000000000000000000000 1
b111111000000000000000000000000 H
b111111000000000000000000000000 b
b111111101100000000000000000000 '
b111111101100000000000000000000 /
b111111101100000000000000000000 2
b111111101100000000000000000000 I
b111111101100000000000000000000 a
b0 v
b0 t
0x
b0 '"
b111111000000000000000000000000 g
b111111000000000000000000000000 u
b111111101100000000000000000000 f
b111111101100000000000000000000 s
1h
1w
b10 o
0(
#110000
b10 q
b1 r
b111111111100000000000000000000 #
b111111111100000000000000000000 -
b111111111100000000000000000000 ^
b111111111100000000000000000000 d
b111111111100000000000000000000 z
1"
b111111111100000000000000000000 ,
b111111111100000000000000000000 0
b111111111100000000000000000000 @
1*
b111111001100000000000000000000 +
b111111001100000000000000000000 G
b111111001100000000000000000000 X
1)
1(
#115000
0B
b0 A
0Z
b0 Y
b0 &
b0 .
b0 1
b0 H
b0 b
b0 '
b0 /
b0 2
b0 I
b0 a
0$
b111111101101001111110111110100 n
b111101000000001010110111110101 m
b111111101110010000001101100100 j
b111101000000001010110111110101 v
b111111101101001111110111110100 t
1x
b10 r
b0 *"
b0 g
b0 u
b0 f
b0 s
0h
0w
b10 p
b1 o
b0x '"
0(
#120000
b111101000000001010110111110101 v
b111111101101001111110111110100 t
1x
b0 #
b0 -
b0 ^
b0 d
b0 z
0"
b0 +
b0 G
b0 X
0)
b0 ,
b0 0
b0 @
0*
1(
#125000
b111111101110010000001101100100 A
b1110010000001101100100 9
b101110010000001101100011101 F
b1000000010101101111101 8
b101101001111110111110100000 7
b101 6
b100000001010110111110101000 =
b101101001111110111110100000 <
b1111010 ;
1B
b111101001101011111001111101110 Y
b1101011111001111101110 P
b1111010 L
b10110101111100111110110110101001110111010000100000000 W
b101101001111110111110100000 N
b100000001010110111110101000 O
b1111010 K
b100000001010110111110101000 T
b101101001111110111110100000 S
b1111010 R
1Z
b0x *"
1$
b111101000000001010110111110101 &
b111101000000001010110111110101 .
b111101000000001010110111110101 1
b111101000000001010110111110101 H
b111101000000001010110111110101 b
b111111101101001111110111110100 '
b111111101101001111110111110100 /
b111111101101001111110111110100 2
b111111101101001111110111110100 I
b111111101101001111110111110100 a
b0 v
b0 t
0x
b0 '"
b111101000000001010110111110101 g
b111101000000001010110111110101 u
b111111101101001111110111110100 f
b111111101101001111110111110100 s
1h
1w
b10 o
0(
#130000
b11 q
b1 r
b111111101110010000001101100100 #
b111111101110010000001101100100 -
b111111101110010000001101100100 ^
b111111101110010000001101100100 d
b111111101110010000001101100100 z
1"
b111111101110010000001101100100 ,
b111111101110010000001101100100 0
b111111101110010000001101100100 @
1*
b111101001101011111001111101110 +
b111101001101011111001111101110 G
b111101001101011111001111101110 X
1)
1(
#135000
0B
b0 A
0Z
b0 Y
b0 &
b0 .
b0 1
b0 H
b0 b
b0 '
b0 /
b0 2
b0 I
b0 a
0$
b111011010011011110001100100010 n
b111111101101001111110111110100 m
b111111101101010110010011100110 j
b111111101101001111110111110100 v
b111011010011011110001100100010 t
1x
b10 r
b0 *"
b0 g
b0 u
b0 f
b0 s
0h
0w
b11 p
b1 o
b0x '"
0(
#140000
b111111101101001111110111110100 v
b111011010011011110001100100010 t
1x
b0 #
b0 -
b0 ^
b0 d
b0 z
0"
b0 +
b0 G
b0 X
0)
b0 ,
b0 0
b0 @
0*
1(
#145000
b111111101101010110010011100110 A
b1101010110010011100110 9
b101101010110010011100101100 F
b110011011110001100 7
b101101001111110111110100000 8
b1001 6
b101101001111110111110100000 =
b110011011110001100100010000 <
b1111111 ;
b1110110 :
1B
b111011100100011000111111110010 Y
b100011000111111110010 P
b1110111 L
b100100011000111111110001100111010001011001101000000000 W
b110011011110001100100010000 N
b101101001111110111110100000 O
b1110110 J
b1111111 K
b101101001111110111110100000 T
b110011011110001100100010000 S
b1111111 R
b1110110 Q
1Z
b0x *"
1$
b111111101101001111110111110100 &
b111111101101001111110111110100 .
b111111101101001111110111110100 1
b111111101101001111110111110100 H
b111111101101001111110111110100 b
b111011010011011110001100100010 '
b111011010011011110001100100010 /
b111011010011011110001100100010 2
b111011010011011110001100100010 I
b111011010011011110001100100010 a
b0 v
b0 t
0x
b0 '"
b111111101101001111110111110100 g
b111111101101001111110111110100 u
b111011010011011110001100100010 f
b111011010011011110001100100010 s
1h
1w
b10 o
0(
#150000
b100 q
b1 r
b111111101101010110010011100110 #
b111111101101010110010011100110 -
b111111101101010110010011100110 ^
b111111101101010110010011100110 d
b111111101101010110010011100110 z
1"
b111111101101010110010011100110 ,
b111111101101010110010011100110 0
b111111101101010110010011100110 @
1*
b111011100100011000111111110010 +
b111011100100011000111111110010 G
b111011100100011000111111110010 X
1)
1(
#155000
0B
b0 A
0Z
b0 Y
b0 &
b0 .
b0 1
b0 H
b0 b
b0 '
b0 /
b0 2
b0 I
b0 a
0$
b111111101101001111110111110100 v
b111011010011011110001100100010 t
1x
b10 r
b0 *"
b0 g
b0 u
b0 f
b0 s
0h
0w
b100 p
b1 o
b0x '"
0(
#160000
b111111101101001111110111110100 v
b111011010011011110001100100010 t
1x
b0 #
b0 -
b0 ^
b0 d
b0 z
0"
b0 +
b0 G
b0 X
0)
b0 ,
b0 0
b0 @
0*
1(
#165000
b111111101101010110010011100110 A
1B
b111011100100011000111111110010 Y
1Z
b0x *"
1$
b111111101101001111110111110100 &
b111111101101001111110111110100 .
b111111101101001111110111110100 1
b111111101101001111110111110100 H
b111111101101001111110111110100 b
b111011010011011110001100100010 '
b111011010011011110001100100010 /
b111011010011011110001100100010 2
b111011010011011110001100100010 I
b111011010011011110001100100010 a
b0 v
b0 t
0x
b0 '"
b111111101101001111110111110100 g
b111111101101001111110111110100 u
b111011010011011110001100100010 f
b111011010011011110001100100010 s
1h
1w
b10 o
0(
#170000
b101 q
b1 r
b111111101101010110010011100110 #
b111111101101010110010011100110 -
b111111101101010110010011100110 ^
b111111101101010110010011100110 d
b111111101101010110010011100110 z
1"
b111111101101010110010011100110 ,
b111111101101010110010011100110 0
b111111101101010110010011100110 @
1*
b111011100100011000111111110010 +
b111011100100011000111111110010 G
b111011100100011000111111110010 X
1)
1(
#175000
0B
b0 A
0Z
b0 Y
b0 &
b0 .
b0 1
b0 H
b0 b
b0 '
b0 /
b0 2
b0 I
b0 a
0$
b10111011010011011110001100100010 n
b111111101101001001011100000010 j
b111111101101001111110111110100 v
b10111011010011011110001100100010 t
1x
b10 r
b0 *"
b0 g
b0 u
b0 f
b0 s
0h
0w
b101 p
b1 o
b0x '"
0(
#180000
b111111101101001111110111110100 v
b10111011010011011110001100100010 t
1x
b0 #
b0 -
b0 ^
b0 d
b0 z
0"
b0 +
b0 G
b0 X
0)
b0 ,
b0 0
b0 @
0*
1(
#185000
b111111101101001001011100000010 A
b1101001001011100000010 9
b101101001001011100000010100 F
1C
1>
1B
b10111011100100011000111111110010 Y
1]
1[
1U
1Z
b0x *"
1$
b111111101101001111110111110100 &
b111111101101001111110111110100 .
b111111101101001111110111110100 1
b111111101101001111110111110100 H
b111111101101001111110111110100 b
b10111011010011011110001100100010 '
b10111011010011011110001100100010 /
b10111011010011011110001100100010 2
b10111011010011011110001100100010 I
b10111011010011011110001100100010 a
b0 v
b0 t
0x
b0 '"
b111111101101001111110111110100 g
b111111101101001111110111110100 u
b10111011010011011110001100100010 f
b10111011010011011110001100100010 s
1h
1w
b10 o
0(
#190000
b110 q
b1 r
b111111101101001001011100000010 #
b111111101101001001011100000010 -
b111111101101001001011100000010 ^
b111111101101001001011100000010 d
b111111101101001001011100000010 z
1"
b111111101101001001011100000010 ,
b111111101101001001011100000010 0
b111111101101001001011100000010 @
1*
b10111011100100011000111111110010 +
b10111011100100011000111111110010 G
b10111011100100011000111111110010 X
1)
1(
#195000
0B
b0 A
0Z
b0 Y
b0 &
b0 .
b0 1
b0 H
b0 b
b0 '
b0 /
b0 2
b0 I
b0 a
0$
b111011010011011110001100100010 n
b10111111101101001111110111110100 m
b10111111101101001001011100000010 j
b10111111101101001111110111110100 v
b111011010011011110001100100010 t
1x
b10 r
b0 *"
b0 g
b0 u
b0 f
b0 s
0h
0w
b110 p
b1 o
b0x '"
0(
#200000
b10111111101101001111110111110100 v
b111011010011011110001100100010 t
1x
b0 #
b0 -
b0 ^
b0 d
b0 z
0"
b0 +
b0 G
b0 X
0)
b0 ,
b0 0
b0 @
0*
1(
#205000
b10111111101101001001011100000010 A
1E
1D
0C
1?
0>
1B
b10111011100100011000111111110010 Y
1\
0[
1V
0U
1Z
b0x *"
1$
b10111111101101001111110111110100 &
b10111111101101001111110111110100 .
b10111111101101001111110111110100 1
b10111111101101001111110111110100 H
b10111111101101001111110111110100 b
b111011010011011110001100100010 '
b111011010011011110001100100010 /
b111011010011011110001100100010 2
b111011010011011110001100100010 I
b111011010011011110001100100010 a
b0 v
b0 t
0x
b0 '"
b10111111101101001111110111110100 g
b10111111101101001111110111110100 u
b111011010011011110001100100010 f
b111011010011011110001100100010 s
1h
1w
b10 o
0(
#210000
b111 q
b1 r
b10111111101101001001011100000010 #
b10111111101101001001011100000010 -
b10111111101101001001011100000010 ^
b10111111101101001001011100000010 d
b10111111101101001001011100000010 z
1"
b10111111101101001001011100000010 ,
b10111111101101001001011100000010 0
b10111111101101001001011100000010 @
1*
b10111011100100011000111111110010 +
b10111011100100011000111111110010 G
b10111011100100011000111111110010 X
1)
1(
#215000
0B
b0 A
0Z
b0 Y
b0 &
b0 .
b0 1
b0 H
b0 b
b0 '
b0 /
b0 2
b0 I
b0 a
0$
b10111111101101001111110111110100 n
b111101000000001010110111110101 m
b10111111101100001111100010000100 j
b111101000000001010110111110101 v
b10111111101101001111110111110100 t
1x
b10 r
b0 *"
b0 g
b0 u
b0 f
b0 s
0h
0w
b111 p
b1 o
b0x '"
0(
#220000
b111101000000001010110111110101 v
b10111111101101001111110111110100 t
1x
b0 #
b0 -
b0 ^
b0 d
b0 z
0"
b0 +
b0 G
b0 X
0)
b0 ,
b0 0
b0 @
0*
1(
#225000
b10111111101100001111100010000100 A
b1100001111100010000100 9
b101100001111100010000100011 F
b1000000010101101111101 8
b101101001111110111110100000 7
b101 6
0D
1C
b100000001010110111110101000 =
b101101001111110111110100000 <
b1111010 ;
b1111111 :
0?
1>
1B
b10111101001101011111001111101110 Y
b1101011111001111101110 P
b1111010 L
b10110101111100111110110110101001110111010000100000000 W
b101101001111110111110100000 N
b100000001010110111110101000 O
b1111111 J
b1111010 K
0\
1[
b100000001010110111110101000 T
b101101001111110111110100000 S
b1111010 R
b1111111 Q
0V
1U
1Z
b0x *"
1$
b111101000000001010110111110101 &
b111101000000001010110111110101 .
b111101000000001010110111110101 1
b111101000000001010110111110101 H
b111101000000001010110111110101 b
b10111111101101001111110111110100 '
b10111111101101001111110111110100 /
b10111111101101001111110111110100 2
b10111111101101001111110111110100 I
b10111111101101001111110111110100 a
b0 v
b0 t
0x
b0 '"
b111101000000001010110111110101 g
b111101000000001010110111110101 u
b10111111101101001111110111110100 f
b10111111101101001111110111110100 s
1h
1w
b10 o
0(
#230000
b1000 q
b1 r
b10111111101100001111100010000100 #
b10111111101100001111100010000100 -
b10111111101100001111100010000100 ^
b10111111101100001111100010000100 d
b10111111101100001111100010000100 z
1"
b10111111101100001111100010000100 ,
b10111111101100001111100010000100 0
b10111111101100001111100010000100 @
1*
b10111101001101011111001111101110 +
b10111101001101011111001111101110 G
b10111101001101011111001111101110 X
1)
1(
#235000
0B
b0 A
0Z
b0 Y
b0 &
b0 .
b0 1
b0 H
b0 b
b0 '
b0 /
b0 2
b0 I
b0 a
0$
b111111101101001111110111110100 n
b10111101000000001010110111110101 m
b111111101100001111100010000100 j
b10111101000000001010110111110101 v
b111111101101001111110111110100 t
1x
b10 r
b0 *"
b0 g
b0 u
b0 f
b0 s
0h
0w
b1000 p
b1 o
b0x '"
0(
#240000
b10111101000000001010110111110101 v
b111111101101001111110111110100 t
1x
b0 #
b0 -
b0 ^
b0 d
b0 z
0"
b0 +
b0 G
b0 X
0)
b0 ,
b0 0
b0 @
0*
1(
#245000
b111111101100001111100010000100 A
0E
1D
0C
1?
0>
1B
b10111101001101011111001111101110 Y
1\
0[
1V
0U
1Z
b0x *"
1$
b10111101000000001010110111110101 &
b10111101000000001010110111110101 .
b10111101000000001010110111110101 1
b10111101000000001010110111110101 H
b10111101000000001010110111110101 b
b111111101101001111110111110100 '
b111111101101001111110111110100 /
b111111101101001111110111110100 2
b111111101101001111110111110100 I
b111111101101001111110111110100 a
b0 v
b0 t
0x
b0 '"
b10111101000000001010110111110101 g
b10111101000000001010110111110101 u
b111111101101001111110111110100 f
b111111101101001111110111110100 s
1h
1w
b10 o
0(
#250000
b1001 q
b1 r
b111111101100001111100010000100 #
b111111101100001111100010000100 -
b111111101100001111100010000100 ^
b111111101100001111100010000100 d
b111111101100001111100010000100 z
1"
b111111101100001111100010000100 ,
b111111101100001111100010000100 0
b111111101100001111100010000100 @
1*
b10111101001101011111001111101110 +
b10111101001101011111001111101110 G
b10111101001101011111001111101110 X
1)
1(
#255000
0B
b0 A
0Z
b0 Y
b0 &
b0 .
b0 1
b0 H
b0 b
b0 '
b0 /
b0 2
b0 I
b0 a
0$
b110111011011010011101011010110 n
b10111101000000001001111100100001 j
b10111101000000001010110111110101 v
b110111011011010011101011010110 t
1x
b10 r
b0 *"
b0 g
b0 u
b0 f
b0 s
0h
0w
1i
b1001 p
b1 o
b0x '"
0(
#260000
b10111101000000001010110111110101 v
b110111011011010011101011010110 t
1x
b0 #
b0 -
b0 ^
b0 d
b0 z
0"
b0 +
b0 G
b0 X
0)
b0 ,
b0 0
b0 @
0*
1(
#265000
b10111101000000001001111100100001 A
b1001111100100001 9
b1111010 5
1E
b100000001001111100100001011 F
b111011010011101 7
b100000001010110111110101000 8
b1111010 3
b1111010 4
b1100 6
b111011010011101011010110000 <
b1101110 :
1B
b10110100111011100111110100111110 Y
b11011100111110100111110 P
b1101001 L
b11101110011111010011110110010111110110011001110000000 W
b111011010011101011010110000 N
b1101110 J
b111011010011101011010110000 S
b1101110 Q
1Z
b0x *"
1$
b10111101000000001010110111110101 &
b10111101000000001010110111110101 .
b10111101000000001010110111110101 1
b10111101000000001010110111110101 H
b10111101000000001010110111110101 b
b110111011011010011101011010110 '
b110111011011010011101011010110 /
b110111011011010011101011010110 2
b110111011011010011101011010110 I
b110111011011010011101011010110 a
b0 v
b0 t
0x
b0 '"
b10111101000000001010110111110101 g
b10111101000000001010110111110101 u
b110111011011010011101011010110 f
b110111011011010011101011010110 s
1h
1w
b10 o
0(
#270000
b11 r
b10111101000000001001111100100001 #
b10111101000000001001111100100001 -
b10111101000000001001111100100001 ^
b10111101000000001001111100100001 d
b10111101000000001001111100100001 z
1"
b10111101000000001001111100100001 ,
b10111101000000001001111100100001 0
b10111101000000001001111100100001 @
1*
b10110100111011100111110100111110 +
b10110100111011100111110100111110 G
b10110100111011100111110100111110 X
1)
1(
#275000
0B
b0 A
0Z
b0 Y
b0 &
b0 .
b0 1
b0 H
b0 b
b0 '
b0 /
b0 2
b0 I
b0 a
0$
b100 r
b0 *"
b0 g
b0 u
b0 f
b0 s
0h
0w
b11 o
b0x '"
0(
#280000
b0 #
b0 -
b0 ^
b0 d
b0 z
0"
b0 +
b0 G
b0 X
0)
b0 ,
b0 0
b0 @
0*
1(
#285000
b0x *"
b10 `
b0 '"
1l
b100 o
0(
#290000
1(
#295000
b0 *"
1%
1{
b0x '"
b10 _
0(
#300000
1(
#305000
b1 *"
b0 '"
0(
#310000
1(
#315000
b111111000000000000000000000000 ."
b111111101100000000000000000000 ,"
10"
b10 *"
b1 '"
0(
#320000
1(
#325000
b111111111100000000000000000000 A
b11100000000000000000000 9
b1111111 5
0E
b111100000000000000000000000 F
b10000000000000000000000000 8
b101100000000000000000000000 7
b1111111 4
b1111111 3
b1 6
0D
b100000000000000000000000000 =
b101100000000000000000000000 <
b1111110 ;
b1111111 :
0?
1B
b111111001100000000000000000000 Y
b1100000000000000000000 P
b1111110 L
b10110000000000000000000000000000000000000000000000000 W
0]
b101100000000000000000000000 N
b100000000000000000000000000 O
b1111111 J
b1111110 K
0\
b100000000000000000000000000 T
b101100000000000000000000000 S
b1111110 R
b1111111 Q
0V
1Z
1$
b111111000000000000000000000000 &
b111111000000000000000000000000 .
b111111000000000000000000000000 1
b111111000000000000000000000000 H
b111111000000000000000000000000 b
b111111101100000000000000000000 '
b111111101100000000000000000000 /
b111111101100000000000000000000 2
b111111101100000000000000000000 I
b111111101100000000000000000000 a
b0 ."
b0 ,"
00"
b111111000000000000000000000000 }
b111111000000000000000000000000 -"
b111111101100000000000000000000 |
b111111101100000000000000000000 +"
1~
1/"
b10 '"
0(
#330000
b1 )"
b1 *"
b111111001100000000000000000000 #
b111111001100000000000000000000 -
b111111001100000000000000000000 ^
b111111001100000000000000000000 d
b111111001100000000000000000000 z
1"
b111111111100000000000000000000 ,
b111111111100000000000000000000 0
b111111111100000000000000000000 @
1*
b111111001100000000000000000000 +
b111111001100000000000000000000 G
b111111001100000000000000000000 X
1)
1(
#335000
0B
b0 A
0Z
b0 Y
b0 &
b0 .
b0 1
b0 H
b0 b
b0 '
b0 /
b0 2
b0 I
b0 a
0$
b111111000000000000000000000000 &"
b111111101100000000000000000000 %"
b111111101100000000000000000000 ."
b111111000000000000000000000000 ,"
10"
b10 *"
b0 }
b0 -"
b0 |
b0 +"
0~
0/"
b1 ("
b1 '"
0(
#340000
b111111101100000000000000000000 ."
b111111000000000000000000000000 ,"
10"
b0 #
b0 -
b0 ^
b0 d
b0 z
0"
b0 +
b0 G
b0 X
0)
b0 ,
b0 0
b0 @
0*
1(
#345000
b111111111100000000000000000000 A
b10000000000000000000000000 7
b101100000000000000000000000 8
b101100000000000000000000000 =
b100000000000000000000000000 <
b1111111 ;
b1111110 :
1B
b111111001100000000000000000000 Y
b100000000000000000000000000 N
b101100000000000000000000000 O
b1111110 J
b1111111 K
b101100000000000000000000000 T
b100000000000000000000000000 S
b1111111 R
b1111110 Q
1Z
1$
b111111101100000000000000000000 &
b111111101100000000000000000000 .
b111111101100000000000000000000 1
b111111101100000000000000000000 H
b111111101100000000000000000000 b
b111111000000000000000000000000 '
b111111000000000000000000000000 /
b111111000000000000000000000000 2
b111111000000000000000000000000 I
b111111000000000000000000000000 a
b0 ."
b0 ,"
00"
b111111101100000000000000000000 }
b111111101100000000000000000000 -"
b111111000000000000000000000000 |
b111111000000000000000000000000 +"
1~
1/"
b10 '"
0(
#350000
b10 )"
b1 *"
b111111001100000000000000000000 #
b111111001100000000000000000000 -
b111111001100000000000000000000 ^
b111111001100000000000000000000 d
b111111001100000000000000000000 z
1"
b111111111100000000000000000000 ,
b111111111100000000000000000000 0
b111111111100000000000000000000 @
1*
b111111001100000000000000000000 +
b111111001100000000000000000000 G
b111111001100000000000000000000 X
1)
1(
#355000
0B
b0 A
0Z
b0 Y
b0 &
b0 .
b0 1
b0 H
b0 b
b0 '
b0 /
b0 2
b0 I
b0 a
0$
b10111111101100000000000000000000 &"
b111111000000000000000000000000 %"
b10111111001100000000000000000000 ""
b111111000000000000000000000000 ."
b10111111101100000000000000000000 ,"
10"
b10 *"
b0 }
b0 -"
b0 |
b0 +"
0~
0/"
b10 ("
b1 '"
0(
#360000
b111111000000000000000000000000 ."
b10111111101100000000000000000000 ,"
10"
b0 #
b0 -
b0 ^
b0 d
b0 z
0"
b0 +
b0 G
b0 X
0)
b0 ,
b0 0
b0 @
0*
1(
