HW3/CPU_v2/cpu.vcd
$date
	Sat Nov 28 20:51:44 2020
$end
$version
	Icarus Verilog
$end
$timescale
	1ps
$end
$scope module test_cpu $end
$var wire 1 ! i_clk $end
$var wire 1 " i_rst_n $end
$var wire 64 # write_data [63:0] $end
$var wire 64 $ write_addr [63:0] $end
$var wire 64 % read_data [63:0] $end
$var wire 1 & i_valid_inst $end
$var wire 1 ' i_valid_addr $end
$var wire 32 ( i_inst [31:0] $end
$var wire 64 ) i_addr [63:0] $end
$var wire 1 * d_valid_data $end
$var wire 1 + MemWrite $end
$var wire 1 , MemRead $end
$var wire 1 - Finish $end
$var reg 1 . clk $end
$var reg 1 / rst_n $end
$var integer 32 0 error [31:0] $end
$var integer 32 1 i [31:0] $end
$scope module u_cpu $end
$var wire 1 . i_clk $end
$var wire 1 " i_rst_n $end
$var wire 64 2 o_d_addr [63:0] $end
$var wire 64 3 o_d_data [63:0] $end
$var wire 64 4 o_i_addr [63:0] $end
$var wire 1 ' o_i_valid_addr $end
$var wire 1 - o_finish $end
$var wire 1 + o_d_MemWrite $end
$var wire 1 , o_d_MemRead $end
$var wire 1 & i_i_valid_inst $end
$var wire 32 5 i_i_inst_cont [31:0] $end
$var wire 32 6 i_i_inst [31:0] $end
$var wire 1 * i_d_valid_data $end
$var wire 64 7 i_d_data_cont [63:0] $end
$var wire 64 8 i_d_data [63:0] $end
$var wire 1 9 Zero $end
$var wire 64 : WriteData [63:0] $end
$var wire 1 ; RegWrite $end
$var wire 64 < ReadData2 [63:0] $end
$var wire 64 = ReadData1 [63:0] $end
$var wire 64 > PC_next [63:0] $end
$var wire 64 ? PC1 [63:0] $end
$var wire 64 @ PC0 [63:0] $end
$var wire 64 A PC [63:0] $end
$var wire 1 B MemtoReg $end
$var wire 1 C InstNext $end
$var wire 64 D Imm_SignExt [63:0] $end
$var wire 1 E Branch $end
$var wire 64 F ALUresult [63:0] $end
$var wire 4 G ALUinst [3:0] $end
$var wire 64 H ALU_in2 [63:0] $end
$var wire 1 I ALUSrc $end
$var wire 2 J ALUOp [1:0] $end
$scope module u_ALU $end
$var wire 1 9 o_Zero $end
$var wire 64 K o_ALUresult [63:0] $end
$var wire 4 L i_ALUinst [3:0] $end
$var wire 64 M i_ALU_in2 [63:0] $end
$var wire 64 N i_ALU_in1 [63:0] $end
$var reg 64 O o_ALUresult_w [63:0] $end
$var reg 1 9 o_Zero_w $end
$upscope $end
$scope module u_ALUcontrol $end
$var wire 4 P i_inst_30_14_12 [3:0] $end
$var wire 4 Q o_ALUinst [3:0] $end
$var wire 2 R i_ALUOp [1:0] $end
$var reg 4 S o_ALUinst_w [3:0] $end
$upscope $end
$scope module u_Add_l $end
$var wire 64 T i_b [63:0] $end
$var wire 64 U o_sum [63:0] $end
$var wire 64 V i_a [63:0] $end
$upscope $end
$scope module u_Add_r $end
$var wire 64 W i_b [63:0] $end
$var wire 64 X o_sum [63:0] $end
$var wire 64 Y i_a [63:0] $end
$upscope $end
$scope module u_Control $end
$var wire 1 . i_clk $end
$var wire 7 Z i_inst_6_0 [6:0] $end
$var wire 1 " i_rst_n $end
$var wire 2 [ o_ALUOp [1:0] $end
$var wire 1 I o_ALUSrc $end
$var wire 1 - o_Finish $end
$var wire 1 C o_InstNext $end
$var wire 1 , o_MemRead $end
$var wire 1 B o_MemtoReg $end
$var wire 1 ; o_RegWrite $end
$var wire 1 + o_MemWrite $end
$var wire 1 E o_Branch $end
$var wire 1 * i_valid_ld $end
$var wire 1 & i_valid_inst $end
$var reg 1 \ i_valid_inst_r $end
$var reg 1 ] i_valid_inst_set $end
$var reg 1 ^ i_valid_inst_w $end
$var reg 2 _ o_ALUOp_r [1:0] $end
$var reg 2 ` o_ALUOp_w [1:0] $end
$var reg 1 a o_ALUSrc_r $end
$var reg 1 b o_ALUSrc_w $end
$var reg 1 E o_Branch_r $end
$var reg 1 c o_Branch_w $end
$var reg 1 d o_Finish_r $end
$var reg 1 e o_Finish_w $end
$var reg 1 f o_InstNext_r $end
$var reg 1 g o_InstNext_w $end
$var reg 1 h o_MemRead_r $end
$var reg 1 i o_MemRead_r_r $end
$var reg 1 j o_MemRead_w $end
$var reg 1 + o_MemWrite_r $end
$var reg 1 k o_MemWrite_w $end
$var reg 1 l o_MemtoReg_r $end
$var reg 1 m o_MemtoReg_w $end
$var reg 1 n o_RegWrite_r $end
$var reg 1 o o_RegWrite_w $end
$upscope $end
$scope module u_ImmGen $end
$var wire 64 p o_Imm_SignExt [63:0] $end
$var wire 32 q i_inst_31_0 [31:0] $end
$var reg 64 r o_Imm_SignExt_w [63:0] $end
$upscope $end
$scope module u_Mux_bl $end
$var wire 64 s i_in1 [63:0] $end
$var wire 1 I i_sel $end
$var wire 64 t o_out [63:0] $end
$var wire 64 u i_in0 [63:0] $end
$var reg 64 v o_out_w [63:0] $end
$upscope $end
$scope module u_Mux_br $end
$var wire 64 w i_in0 [63:0] $end
$var wire 1 B i_sel $end
$var wire 64 x o_out [63:0] $end
$var wire 64 y i_in1 [63:0] $end
$var reg 64 z o_out_w [63:0] $end
$upscope $end
$scope module u_Mux_ur $end
$var wire 64 { i_in0 [63:0] $end
$var wire 64 | i_in1 [63:0] $end
$var wire 1 } i_sel $end
$var wire 64 ~ o_out [63:0] $end
$var reg 64 !" o_out_w [63:0] $end
$upscope $end
$scope module u_ProgCount $end
$var wire 1 C i_InstNext $end
$var wire 64 "" i_PC_next [63:0] $end
$var wire 1 . i_clk $end
$var wire 1 " i_rst_n $end
$var wire 1 ' o_i_valid_addr $end
$var wire 64 #" o_PC [63:0] $end
$var reg 64 $" o_PC_r [63:0] $end
$var reg 64 %" o_PC_w [63:0] $end
$var reg 1 &" o_i_valid_addr_r $end
$var reg 1 '" o_i_valid_addr_w $end
$var reg 1 (" state $end
$var reg 1 )" state_next $end
$upscope $end
$scope module u_RegFile $end
$var wire 5 *" i_ReadReg1 [4:0] $end
$var wire 5 +" i_ReadReg2 [4:0] $end
$var wire 1 ; i_RegWrite $end
$var wire 64 ," i_WriteData [63:0] $end
$var wire 5 -" i_WriteReg [4:0] $end
$var wire 1 . i_clk $end
$var wire 1 " i_rst_n $end
$var wire 64 ." o_ReadData1 [63:0] $end
$var wire 64 /" o_ReadData2 [63:0] $end
$var reg 64 0" o_ReadData1_w [63:0] $end
$var reg 64 1" o_ReadData2_w [63:0] $end
$var integer 32 2" i [31:0] $end
$upscope $end
$scope module u_data_mem_cont $end
$var wire 1 . i_clk $end
$var wire 1 " i_rst_n $end
$var wire 64 3" o_data_mem [63:0] $end
$var wire 1 * i_valid_mem $end
$var wire 64 4" i_data_mem [63:0] $end
$var reg 64 5" o_data_mem_r [63:0] $end
$var reg 64 6" o_data_mem_w [63:0] $end
$upscope $end
$scope module u_inst_cont $end
$var wire 1 . i_clk $end
$var wire 1 " i_rst_n $end
$var wire 32 7" o_inst_cont [31:0] $end
$var wire 32 8" i_inst [31:0] $end
$var reg 32 9" o_inst_cont_r [31:0] $end
$var reg 32 :" o_inst_cont_w [31:0] $end
$upscope $end
$upscope $end
$scope module u_data_mem $end
$var wire 1 , i_MemRead $end
$var wire 1 + i_MemWrite $end
$var wire 64 ;" i_addr [63:0] $end
$var wire 1 ! i_clk $end
$var wire 64 <" i_data [63:0] $end
$var wire 1 " i_rst_n $end
$var wire 1 =" i_valid $end
$var wire 64 >" o_data [63:0] $end
$var wire 1 * o_valid $end
$var reg 4 ?" cs [3:0] $end
$var reg 4 @" ns [3:0] $end
$var reg 64 A" o_data_r [63:0] $end
$var reg 64 B" o_data_w [63:0] $end
$var reg 1 C" o_valid_r $end
$var reg 1 D" o_valid_w $end
$var reg 1 E" temp_MemRead $end
$var reg 1 F" temp_MemRead_w $end
$var reg 1 G" temp_MemWrite $end
$var reg 1 H" temp_MemWrite_w $end
$var reg 64 I" temp_addr [63:0] $end
$var reg 64 J" temp_addr_w [63:0] $end
$var reg 64 K" temp_data [63:0] $end
$var reg 64 L" temp_data_w [63:0] $end
$var integer 32 M" i [31:0] $end
$upscope $end
$scope module u_inst_mem $end
$var wire 64 N" i_addr [63:0] $end
$var wire 1 ! i_clk $end
$var wire 1 " i_rst_n $end
$var wire 1 ' i_valid $end
$var wire 32 O" o_inst [31:0] $end
$var wire 1 & o_valid $end
$var reg 4 P" cs [3:0] $end
$var reg 4 Q" ns [3:0] $end
$var reg 32 R" o_inst_r [31:0] $end
$var reg 32 S" o_inst_w [31:0] $end
$var reg 1 T" o_valid_r $end
$var reg 1 U" o_valid_w $end
$var reg 64 V" temp_addr_r [63:0] $end
$var reg 64 W" temp_addr_w [63:0] $end
$upscope $end
$upscope $end
$enddefinitions $end
#0
$dumpvars
bx W"
bx V"
0U"
0T"
b0 S"
b0 R"
bx Q"
bx P"
b0 O"
bx N"
b10000000000 M"
bx L"
bx K"
bx J"
bx I"
xH"
xG"
xF"
xE"
0D"
xC"
b0 B"
bx A"
bx @"
bx ?"
bx >"
x="
bx <"
bx ;"
bx :"
bx 9"
b0 8"
bx 7"
bx 6"
bx 5"
bx 4"
bx 3"
b100000 2"
bx 1"
bx 0"
bx /"
bx ."
bx -"
bx ,"
bx +"
bx *"
x)"
x("
x'"
x&"
bx %"
bx $"
bx #"
bx ""
bx !"
bx ~
x}
bx |
bx {
bx z
bx y
bx x
bx w
bx v
bx u
bx t
bx s
bx r
bx q
bx p
xo
xn
xm
xl
xk
xj
xi
xh
xg
xf
xe
xd
xc
xb
xa
bx `
bx _
x^
x]
x\
bx [
bx Z
bx Y
bx X
bx0 W
bx V
bx U
b100 T
bx S
bx R
bx Q
bx P
bx O
bx N
bx M
bx L
bx K
bx J
xI
bx H
bx G
bx F
xE
bx D
xC
xB
bx A
bx @
bx ?
bx >
bx =
bx <
x;
bx :
x9
bx 8
bx 7
b0 6
bx 5
bx 4
bx 3
bx 2
bx 1
b0 0
1/
1.
x-
x,
x+
x*
bx )
b0 (
x'
0&
bx %
bx $
bx #
1"
1!
$end
#2500
b0 H
b0 M
b0 t
b0 v
b0 :
b0 x
b0 ,"
b0 z
b0 #
b0 3
b0 <"
b0 <
b0 u
b0 /"
b0 1"
b0 =
b0 N
b0 ."
b0 0"
0e
b0 ?
b0 X
b0 |
b0 W
b0 $
b0 2
b0 ;"
b0 F
b0 K
b0 O
b0 w
09
1)"
b100 >
b100 ~
b100 ""
b100 !"
b0 :"
b0 P
b0 -"
b0 +"
b0 *"
b0 Z
b0 D
b0 p
b0 r
b0 s
b0 %"
1'"
0="
b1111 G
b1111 L
b1111 Q
b1111 S
0,
0}
0^
0H"
0F"
b0 L"
b0 J"
b0 @"
0g
1]
b0 `
0c
0k
0j
0o
0m
0b
b0 6"
b0 W"
b0 Q"
0("
0'
0&"
b100 @
b100 U
b100 {
b0 )
b0 4
b0 N"
b0 A
b0 V
b0 Y
b0 #"
b0 $"
b0 7
b0 y
b0 3"
b0 5"
b0 5
b0 q
b0 7"
b0 9"
0-
0d
1C
1f
0;
0n
0I
0a
0+
b0 J
b0 R
b0 [
b0 _
0B
0l
0i
0h
0E
0\
0G"
0E"
b0 K"
b0 I"
b0 ?"
b0 %
b0 8
b0 4"
b0 >"
b0 A"
0*
0C"
b0 V"
b0 P"
b100000 2"
b10000000000 M"
0"
0/
#5000
0!
0.
#10000
b100000 2"
b10000000000 M"
1!
1.
#15000
0!
0.
#20000
b100000 2"
b10000000000 M"
1!
1.
#25000
0!
0.
#30000
b100000 2"
b10000000000 M"
1!
1.
#35000
0!
0.
#40000
b100000 2"
b10000000000 M"
1!
1.
#45000
0!
0.
#50000
0'"
b1 Q"
0C
0f
1("
1'
1&"
b100000 2"
b10000000000 M"
1!
1.
1"
1/
#55000
0!
0.
#60000
b10 Q"
0'
0&"
b1 P"
b100000 2"
b10000000000 M"
1!
1.
#65000
0!
0.
#70000
b11 Q"
b10 P"
b100000 2"
b10000000000 M"
1!
1.
#75000
0!
0.
#80000
b100 Q"
b11 P"
b100000 2"
b10000000000 M"
1!
1.
#85000
0!
0.
#90000
b101 Q"
b100 P"
b100000 2"
b10000000000 M"
1!
1.
#95000
0!
0.
#100000
b0 Q"
b111101100000000001010010011 S"
1U"
b101 P"
b100000 2"
b10000000000 M"
1!
1.
#105000
0!
0.
#110000
b0 S"
0U"
b111101100000000001010010011 :"
1^
b0 P"
b111101100000000001010010011 (
b111101100000000001010010011 6
b111101100000000001010010011 8"
b111101100000000001010010011 O"
b111101100000000001010010011 R"
1&
1T"
b100000 2"
b10000000000 M"
1!
1.
#115000
0!
0.
#120000
0^
0]
1g
b11 `
1o
1b
b11110110 ?
b11110110 X
b11110110 |
b11110110 W
b101 -"
b11011 +"
b10011 Z
b1111011 D
b1111011 p
b1111011 r
b1111011 s
b111101100000000001010010011 5
b111101100000000001010010011 q
b111101100000000001010010011 7"
b111101100000000001010010011 9"
1\
b0 (
b0 6
b0 8"
b0 O"
b0 R"
0&
0T"
b100000 2"
b10000000000 M"
1!
1.
#125000
0!
0.
#130000
b1111011 :
b1111011 x
b1111011 ,"
b1111011 z
b1111011 $
b1111011 2
b1111011 ;"
b1111011 F
b1111011 K
b1111011 O
b1111011 w
b100 %"
1'"
b1111011 H
b1111011 M
b1111011 t
b1111011 v
b10 G
b10 L
b10 Q
b10 S
0g
1]
b0 `
0o
0b
1C
1f
1;
1n
1I
1a
b11 J
b11 R
b11 [
b11 _
0\
b100000 2"
b10000000000 M"
1!
1.
#135000
0!
0.
#140000
b0 :
b0 x
b0 ,"
b0 z
b0 $
b0 2
b0 ;"
b0 F
b0 K
b0 O
b0 w
b1 Q"
b1000 >
b1000 ~
b1000 ""
b1000 !"
b100 W"
0'"
b0 H
b0 M
b0 t
b0 v
b1111 G
b1111 L
b1111 Q
b1111 S
1'
1&"
b11111010 ?
b11111010 X
b11111010 |
b1000 @
b1000 U
b1000 {
b100 )
b100 4
b100 N"
b100 A
b100 V
b100 Y
b100 #"
b100 $"
0C
0f
0;
0n
0I
0a
b0 J
b0 R
b0 [
b0 _
b100000 2"
b10000000000 M"
1!
1.
#145000
0!
0.
#150000
b10 Q"
0'
0&"
b100 V"
b1 P"
b100000 2"
b10000000000 M"
1!
1.
#155000
0!
0.
#160000
b11 Q"
b10 P"
b100000 2"
b10000000000 M"
1!
1.
#165000
0!
0.
#170000
b100 Q"
b11 P"
b100000 2"
b10000000000 M"
1!
1.
#175000
0!
0.
#180000
b101 Q"
b100 P"
b100000 2"
b10000000000 M"
1!
1.
#185000
0!
0.
#190000
b0 Q"
b11100100000000000001100010011 S"
1U"
b101 P"
b100000 2"
b10000000000 M"
1!
1.
#195000
0!
0.
#200000
b0 S"
0U"
b11100100000000000001100010011 :"
1^
b0 P"
b11100100000000000001100010011 (
b11100100000000000001100010011 6
b11100100000000000001100010011 8"
b11100100000000000001100010011 O"
b11100100000000000001100010011 R"
1&
1T"
b100000 2"
b10000000000 M"
1!
1.
#205000
0!
0.
#210000
0^
b1110010100 ?
b1110010100 X
b1110010100 |
b1110010000 W
0]
1g
b11 `
1o
1b
b110 -"
b1000 +"
b111001000 D
b111001000 p
b111001000 r
b111001000 s
1\
b11100100000000000001100010011 5
b11100100000000000001100010011 q
b11100100000000000001100010011 7"
b11100100000000000001100010011 9"
b0 (
b0 6
b0 8"
b0 O"
b0 R"
0&
0T"
b100000 2"
b10000000000 M"
1!
1.
#215000
0!
0.
#220000
b111001000 :
b111001000 x
b111001000 ,"
b111001000 z
b111001000 $
b111001000 2
b111001000 ;"
b111001000 F
b111001000 K
b111001000 O
b111001000 w
b1000 %"
1'"
b111001000 H
b111001000 M
b111001000 t
b111001000 v
b10 G
b10 L
b10 Q
b10 S
0g
1]
b0 `
0o
0b
1C
1f
1;
1n
1I
1a
b11 J
b11 R
b11 [
b11 _
0\
b100000 2"
b10000000000 M"
1!
1.
#225000
0!
0.
#230000
b0 :
b0 x
b0 ,"
b0 z
b0 $
b0 2
b0 ;"
b0 F
b0 K
b0 O
b0 w
b0 H
b0 M
b0 t
b0 v
b1111 G
b1111 L
b1111 Q
b1111 S
b1 Q"
0'"
b1100 >
b1100 ~
b1100 ""
b1100 !"
b1000 W"
0C
0f
0;
0n
0I
0a
b0 J
b0 R
b0 [
b0 _
1'
1&"
b1110011000 ?
b1110011000 X
b1110011000 |
b1100 @
b1100 U
b1100 {
b1000 )
b1000 4
b1000 N"
b1000 A
b1000 V
b1000 Y
b1000 #"
b1000 $"
b100000 2"
b10000000000 M"
1!
1.
#235000
0!
0.
#240000
b10 Q"
0'
0&"
b1000 V"
b1 P"
b100000 2"
b10000000000 M"
1!
1.
#245000
0!
0.
#250000
b11 Q"
b10 P"
b100000 2"
b10000000000 M"
1!
1.
#255000
0!
0.
#260000
b100 Q"
b11 P"
b100000 2"
b10000000000 M"
1!
1.
#265000
0!
0.
#270000
b101 Q"
b100 P"
b100000 2"
b10000000000 M"
1!
1.
#275000
0!
0.
#280000
b0 Q"
b111101100000000001110010011 S"
1U"
b101 P"
b100000 2"
b10000000000 M"
1!
1.
#285000
0!
0.
#290000
b0 S"
0U"
b111101100000000001110010011 :"
1^
b0 P"
b111101100000000001110010011 (
b111101100000000001110010011 6
b111101100000000001110010011 8"
b111101100000000001110010011 O"
b111101100000000001110010011 R"
1&
1T"
b100000 2"
b10000000000 M"
1!
1.
#295000
0!
0.
#300000
b11111110 ?
b11111110 X
b11111110 |
b11110110 W
0^
b111 -"
b11011 +"
b1111011 D
b1111011 p
b1111011 r
b1111011 s
0]
1g
b11 `
1o
1b
b111101100000000001110010011 5
b111101100000000001110010011 q
b111101100000000001110010011 7"
b111101100000000001110010011 9"
1\
b0 (
b0 6
b0 8"
b0 O"
b0 R"
0&
0T"
b100000 2"
b10000000000 M"
1!
1.
#305000
0!
0.
#310000
b1111011 :
b1111011 x
b1111011 ,"
b1111011 z
b1111011 $
b1111011 2
b1111011 ;"
b1111011 F
b1111011 K
b1111011 O
b1111011 w
b1100 %"
1'"
b1111011 H
b1111011 M
b1111011 t
b1111011 v
b10 G
b10 L
b10 Q
b10 S
0g
1]
b0 `
0o
0b
1C
1f
1;
1n
1I
1a
b11 J
b11 R
b11 [
b11 _
0\
b100000 2"
b10000000000 M"
1!
1.
#315000
0!
0.
#320000
b0 :
b0 x
b0 ,"
b0 z
b0 $
b0 2
b0 ;"
b0 F
b0 K
b0 O
b0 w
b1 Q"
b10000 >
b10000 ~
b10000 ""
b10000 !"
b1100 W"
0'"
b0 H
b0 M
b0 t
b0 v
b1111 G
b1111 L
b1111 Q
b1111 S
1'
1&"
b100000010 ?
b100000010 X
b100000010 |
b10000 @
b10000 U
b10000 {
b1100 )
b1100 4
b1100 N"
b1100 A
b1100 V
b1100 Y
b1100 #"
b1100 $"
0C
0f
0;
0n
0I
0a
b0 J
b0 R
b0 [
b0 _
b100000 2"
b10000000000 M"
1!
1.
#325000
0!
0.
#330000
b10 Q"
0'
0&"
b1100 V"
b1 P"
b100000 2"
b10000000000 M"
1!
1.
#335000
0!
0.
#340000
b11 Q"
b10 P"
b100000 2"
b10000000000 M"
1!
1.
#345000
0!
0.
#350000
b100 Q"
b11 P"
b100000 2"
b10000000000 M"
1!
1.
#355000
0!
0.
#360000
b101 Q"
b100 P"
b100000 2"
b10000000000 M"
1!
1.
#365000
0!
0.
#370000
b0 Q"
b11000101001011001100011 S"
1U"
b101 P"
b100000 2"
b10000000000 M"
1!
1.
#375000
0!
0.
#380000
b0 S"
0U"
b11000101001011001100011 :"
1^
b0 P"
b11000101001011001100011 (
b11000101001011001100011 6
b11000101001011001100011 8"
b11000101001011001100011 O"
b11000101001011001100011 R"
1&
1T"
b100000 2"
b10000000000 M"
1!
1.
#385000
0!
0.
#390000
b111001000 H
b111001000 M
b111001000 t
b111001000 v
0^
b111001000 #
b111001000 3
b111001000 <"
b111001000 <
b111001000 u
b111001000 /"
b111001000 1"
b1111011 =
b1111011 N
b1111011 ."
b1111011 0"
b11000 ?
b11000 X
b11000 |
b1100 W
0]
1g
b1 `
1c
b1 P
b1100 -"
b110 +"
b101 *"
b1100011 Z
b110 D
b110 p
b110 r
b110 s
1\
b11000101001011001100011 5
b11000101001011001100011 q
b11000101001011001100011 7"
b11000101001011001100011 9"
b0 (
b0 6
b0 8"
b0 O"
b0 R"
0&
0T"
b100000 2"
b10000000000 M"
1!
1.
#395000
0!
0.
#400000
b11000 >
b11000 ~
b11000 ""
b11000 !"
1}
b1111111111111111111111111111111111111111111111111111111010110011 :
b1111111111111111111111111111111111111111111111111111111010110011 x
b1111111111111111111111111111111111111111111111111111111010110011 ,"
b1111111111111111111111111111111111111111111111111111111010110011 z
19
b1111111111111111111111111111111111111111111111111111111010110011 $
b1111111111111111111111111111111111111111111111111111111010110011 2
b1111111111111111111111111111111111111111111111111111111010110011 ;"
b1111111111111111111111111111111111111111111111111111111010110011 F
b1111111111111111111111111111111111111111111111111111111010110011 K
b1111111111111111111111111111111111111111111111111111111010110011 O
b1111111111111111111111111111111111111111111111111111111010110011 w
b11000 %"
1'"
b111 G
b111 L
b111 Q
b111 S
0g
1]
b0 `
0c
1C
1f
b1 J
b1 R
b1 [
b1 _
1E
0\
b100000 2"
b10000000000 M"
1!
1.
#405000
0!
0.
#410000
b0 :
b0 x
b0 ,"
b0 z
b0 $
b0 2
b0 ;"
b0 F
b0 K
b0 O
b0 w
09
b1111 G
b1111 L
b1111 Q
b1111 S
0}
b1 Q"
0'"
b11100 >
b11100 ~
b11100 ""
b11100 !"
b11000 W"
0C
0f
b0 J
b0 R
b0 [
b0 _
0E
1'
1&"
b100100 ?
b100100 X
b100100 |
b11100 @
b11100 U
b11100 {
b11000 )
b11000 4
b11000 N"
b11000 A
b11000 V
b11000 Y
b11000 #"
b11000 $"
b100000 2"
b10000000000 M"
1!
1.
#415000
0!
0.
#420000
b10 Q"
0'
0&"
b11000 V"
b1 P"
b100000 2"
b10000000000 M"
1!
1.
#425000
0!
0.
#430000
b11 Q"
b10 P"
b100000 2"
b10000000000 M"
1!
1.
#435000
0!
0.
#440000
b100 Q"
b11 P"
b100000 2"
b10000000000 M"
1!
1.
#445000
0!
0.
#450000
b101 Q"
b100 P"
b100000 2"
b10000000000 M"
1!
1.
#455000
0!
0.
#460000
b0 Q"
b10010101010011000000100011 S"
1U"
b101 P"
b100000 2"
b10000000000 M"
1!
1.
#465000
0!
0.
#470000
b0 S"
0U"
b10010101010011000000100011 :"
1^
b0 P"
b10010101010011000000100011 (
b10010101010011000000100011 6
b10010101010011000000100011 8"
b10010101010011000000100011 O"
b10010101010011000000100011 R"
1&
1T"
b100000 2"
b10000000000 M"
1!
1.
#475000
0!
0.
#480000
b1111011 :
b1111011 x
b1111011 ,"
b1111011 z
b1111011 H
b1111011 M
b1111011 t
b1111011 v
b1111011 $
b1111011 2
b1111011 ;"
b1111011 F
b1111011 K
b1111011 O
b1111011 w
b10 G
b10 L
b10 Q
b10 S
b1111011 #
b1111011 3
b1111011 <"
b1111011 <
b1111011 u
b1111011 /"
b1111011 1"
b0 =
b0 N
b0 ."
b0 0"
1k
1b
b1011000 ?
b1011000 X
b1011000 |
b1000000 W
0^
b11 P
b0 -"
b101 +"
b1010 *"
b100011 Z
b100000 D
b100000 p
b100000 r
b100000 s
0]
1g
b0 `
0c
b10010101010011000000100011 5
b10010101010011000000100011 q
b10010101010011000000100011 7"
b10010101010011000000100011 9"
1\
b0 (
b0 6
b0 8"
b0 O"
b0 R"
0&
0T"
b100000 2"
b10000000000 M"
1!
1.
#485000
0!
0.
#490000
b100000 :
b100000 x
b100000 ,"
b100000 z
b100000 $
b100000 2
b100000 ;"
b100000 F
b100000 K
b100000 O
b100000 w
b1 @"
1H"
b1111011 L"
b100000 J"
b11100 %"
1'"
b100000 H
b100000 M
b100000 t
b100000 v
1="
0g
1]
0k
0b
1C
1f
1I
1a
1+
0\
b100000 2"
b10000000000 M"
1!
1.
#495000
0!
0.
#500000
b1111011 :
b1111011 x
b1111011 ,"
b1111011 z
b1111011 $
b1111011 2
b1111011 ;"
b1111011 F
b1111011 K
b1111011 O
b1111011 w
b1 Q"
b100000 >
b100000 ~
b100000 ""
b100000 !"
b11100 W"
0'"
b1111011 H
b1111011 M
b1111011 t
b1111011 v
0="
1H"
b10 @"
1'
1&"
b1011100 ?
b1011100 X
b1011100 |
b100000 @
b100000 U
b100000 {
b11100 )
b11100 4
b11100 N"
b11100 A
b11100 V
b11100 Y
b11100 #"
b11100 $"
0C
0f
0I
0a
0+
1G"
b1111011 K"
b100000 I"
b1 ?"
b100000 2"
b10000000000 M"
1!
1.
#505000
0!
0.
#510000
b10 Q"
b11 @"
0'
0&"
b11100 V"
b1 P"
b10 ?"
b100000 2"
b10000000000 M"
1!
1.
#515000
0!
0.
#520000
b100 @"
b11 Q"
b11 ?"
b10 P"
b100000 2"
b10000000000 M"
1!
1.
#525000
0!
0.
#530000
b100 Q"
b101 @"
b11 P"
b100 ?"
b100000 2"
b10000000000 M"
1!
1.
#535000
0!
0.
#540000
b110 @"
b101 Q"
b101 ?"
b100 P"
b100000 2"
b10000000000 M"
1!
1.
#545000
0!
0.
#550000
b0 Q"
b11000101000100001100011 S"
1U"
b111 @"
b101 P"
b110 ?"
b100000 2"
b10000000000 M"
1!
1.
#555000
0!
0.
#560000
b0 @"
b0 J"
b0 L"
0H"
b0 S"
0U"
b11000101000100001100011 :"
1^
b111 ?"
b0 P"
b11000101000100001100011 (
b11000101000100001100011 6
b11000101000100001100011 8"
b11000101000100001100011 O"
b11000101000100001100011 R"
1&
1T"
b100000 2"
b10000000000 M"
1!
1.
#565000
0!
0.
#570000
b0 :
b0 x
b0 ,"
b0 z
b111001000 H
b111001000 M
b111001000 t
b111001000 v
b0 $
b0 2
b0 ;"
b0 F
b0 K
b0 O
b0 w
0^
b1111 G
b1111 L
b1111 Q
b1111 S
b111001000 #
b111001000 3
b111001000 <"
b111001000 <
b111001000 u
b111001000 /"
b111001000 1"
b1111011 =
b1111011 N
b1111011 ."
b1111011 0"
b101100 ?
b101100 X
b101100 |
b10000 W
0]
1g
b1 `
1c
b0 P
b10000 -"
b110 +"
b101 *"
b1100011 Z
b1000 D
b1000 p
b1000 r
b1000 s
1\
b11000101000100001100011 5
b11000101000100001100011 q
b11000101000100001100011 7"
b11000101000100001100011 9"
b0 (
b0 6
b0 8"
b0 O"
b0 R"
0&
0T"
0G"
b0 K"
b0 I"
b0 ?"
b100000 2"
b10000000000 M"
1!
1.
#575000
0!
0.
#580000
b1111111111111111111111111111111111111111111111111111111010110011 :
b1111111111111111111111111111111111111111111111111111111010110011 x
b1111111111111111111111111111111111111111111111111111111010110011 ,"
b1111111111111111111111111111111111111111111111111111111010110011 z
b1111111111111111111111111111111111111111111111111111111010110011 $
b1111111111111111111111111111111111111111111111111111111010110011 2
b1111111111111111111111111111111111111111111111111111111010110011 ;"
b1111111111111111111111111111111111111111111111111111111010110011 F
b1111111111111111111111111111111111111111111111111111111010110011 K
b1111111111111111111111111111111111111111111111111111111010110011 O
b1111111111111111111111111111111111111111111111111111111010110011 w
b100000 %"
1'"
b110 G
b110 L
b110 Q
b110 S
0g
1]
b0 `
0c
1C
1f
b1 J
b1 R
b1 [
b1 _
1E
0\
b100000 2"
b10000000000 M"
1!
1.
#585000
0!
0.
#590000
b0 :
b0 x
b0 ,"
b0 z
b0 $
b0 2
b0 ;"
b0 F
b0 K
b0 O
b0 w
b1111 G
b1111 L
b1111 Q
b1111 S
b1 Q"
0'"
b100100 >
b100100 ~
b100100 ""
b100100 !"
b100000 W"
0C
0f
b0 J
b0 R
b0 [
b0 _
0E
1'
1&"
b110000 ?
b110000 X
b110000 |
b100100 @
b100100 U
b100100 {
b100000 )
b100000 4
b100000 N"
b100000 A
b100000 V
b100000 Y
b100000 #"
b100000 $"
b100000 2"
b10000000000 M"
1!
1.
#595000
0!
0.
#600000
b10 Q"
0'
0&"
b100000 V"
b1 P"
b100000 2"
b10000000000 M"
1!
1.
#605000
0!
0.
#610000
b11 Q"
b10 P"
b100000 2"
b10000000000 M"
1!
1.
#615000
0!
0.
#620000
b100 Q"
b11 P"
b100000 2"
b10000000000 M"
1!
1.
#625000
0!
0.
#630000
b101 Q"
b100 P"
b100000 2"
b10000000000 M"
1!
1.
#635000
0!
0.
#640000
b0 Q"
b10011001010011010000100011 S"
1U"
b101 P"
b100000 2"
b10000000000 M"
1!
1.
#645000
0!
0.
#650000
b0 S"
0U"
b10011001010011010000100011 :"
1^
b0 P"
b10011001010011010000100011 (
b10011001010011010000100011 6
b10011001010011010000100011 8"
b10011001010011010000100011 O"
b10011001010011010000100011 R"
1&
1T"
b100000 2"
b10000000000 M"
1!
1.
#655000
0!
0.
#660000
b111001000 :
b111001000 x
b111001000 ,"
b111001000 z
b111001000 $
b111001000 2
b111001000 ;"
b111001000 F
b111001000 K
b111001000 O
b111001000 w
b10 G
b10 L
b10 Q
b10 S
b0 =
b0 N
b0 ."
b0 0"
1k
1b
b1110000 ?
b1110000 X
b1110000 |
b1010000 W
0^
b11 P
b1000 -"
b1010 *"
b100011 Z
b101000 D
b101000 p
b101000 r
b101000 s
0]
1g
b0 `
0c
b10011001010011010000100011 5
b10011001010011010000100011 q
b10011001010011010000100011 7"
b10011001010011010000100011 9"
1\
b0 (
b0 6
b0 8"
b0 O"
b0 R"
0&
0T"
b100000 2"
b10000000000 M"
1!
1.
#665000
0!
0.
#670000
b101000 :
b101000 x
b101000 ,"
b101000 z
b101000 $
b101000 2
b101000 ;"
b101000 F
b101000 K
b101000 O
b101000 w
b1 @"
1H"
b111001000 L"
b101000 J"
b100100 %"
1'"
b101000 H
b101000 M
b101000 t
b101000 v
1="
0g
1]
0k
0b
1C
1f
1I
1a
1+
0\
b100000 2"
b10000000000 M"
1!
1.
#675000
0!
0.
