HW3/Bitonic_Sort/sort.vcd
$date
	Wed Nov 25 13:44:01 2020
$end
$version
	Icarus Verilog
$end
$timescale
	1ps
$end
$scope module test_sort $end
$var reg 1 ! clk $end
$var reg 1 " rst_n $end
$var integer 32 # i [31:0] $end
$var integer 32 $ t [31:0] $end
$scope module u_sort $end
$var wire 1 ! i_clk $end
$var wire 64 % i_input [63:0] $end
$var wire 1 " i_rst_n $end
$var wire 64 & o_output [63:0] $end
$scope begin genblk1[0] $end
$upscope $end
$scope begin genblk1[1] $end
$upscope $end
$scope begin genblk1[2] $end
$upscope $end
$scope begin genblk1[3] $end
$upscope $end
$scope begin genblk1[4] $end
$upscope $end
$scope begin genblk1[5] $end
$upscope $end
$scope begin genblk1[6] $end
$upscope $end
$scope begin genblk1[7] $end
$upscope $end
$scope begin genblk13[0] $end
$upscope $end
$scope begin genblk13[1] $end
$upscope $end
$scope begin genblk13[2] $end
$upscope $end
$scope begin genblk13[3] $end
$upscope $end
$scope begin genblk13[4] $end
$upscope $end
$scope begin genblk13[5] $end
$upscope $end
$scope begin genblk13[6] $end
$upscope $end
$scope begin genblk13[7] $end
$upscope $end
$scope begin t1[0] $end
$scope begin genblk3 $end
$scope module u1 $end
$var wire 1 ! i_clk $end
$var wire 8 ' i_input_1 [7:0] $end
$var wire 8 ( i_input_2 [7:0] $end
$var wire 1 " i_rst_n $end
$var wire 8 ) o_output_1 [7:0] $end
$var wire 8 * o_output_2 [7:0] $end
$var reg 8 + o_output_1_r [7:0] $end
$var reg 8 , o_output_1_w [7:0] $end
$var reg 8 - o_output_2_r [7:0] $end
$var reg 8 . o_output_2_w [7:0] $end
$upscope $end
$upscope $end
$upscope $end
$scope begin t1[1] $end
$scope begin genblk4 $end
$scope module u1 $end
$var wire 1 ! i_clk $end
$var wire 8 / i_input_1 [7:0] $end
$var wire 8 0 i_input_2 [7:0] $end
$var wire 1 " i_rst_n $end
$var wire 8 1 o_output_1 [7:0] $end
$var wire 8 2 o_output_2 [7:0] $end
$var reg 8 3 o_output_1_r [7:0] $end
$var reg 8 4 o_output_1_w [7:0] $end
$var reg 8 5 o_output_2_r [7:0] $end
$var reg 8 6 o_output_2_w [7:0] $end
$upscope $end
$upscope $end
$upscope $end
$scope begin t1[2] $end
$scope begin genblk3 $end
$scope module u1 $end
$var wire 1 ! i_clk $end
$var wire 8 7 i_input_1 [7:0] $end
$var wire 8 8 i_input_2 [7:0] $end
$var wire 1 " i_rst_n $end
$var wire 8 9 o_output_1 [7:0] $end
$var wire 8 : o_output_2 [7:0] $end
$var reg 8 ; o_output_1_r [7:0] $end
$var reg 8 < o_output_1_w [7:0] $end
$var reg 8 = o_output_2_r [7:0] $end
$var reg 8 > o_output_2_w [7:0] $end
$upscope $end
$upscope $end
$upscope $end
$scope begin t1[3] $end
$scope begin genblk4 $end
$scope module u1 $end
$var wire 1 ! i_clk $end
$var wire 8 ? i_input_1 [7:0] $end
$var wire 8 @ i_input_2 [7:0] $end
$var wire 1 " i_rst_n $end
$var wire 8 A o_output_1 [7:0] $end
$var wire 8 B o_output_2 [7:0] $end
$var reg 8 C o_output_1_r [7:0] $end
$var reg 8 D o_output_1_w [7:0] $end
$var reg 8 E o_output_2_r [7:0] $end
$var reg 8 F o_output_2_w [7:0] $end
$upscope $end
$upscope $end
$upscope $end
$scope begin t2[0] $end
$scope module u2 $end
$var wire 1 ! i_clk $end
$var wire 8 G i_input_1 [7:0] $end
$var wire 8 H i_input_2 [7:0] $end
$var wire 1 " i_rst_n $end
$var wire 8 I o_output_1 [7:0] $end
$var wire 8 J o_output_2 [7:0] $end
$var reg 8 K o_output_1_r [7:0] $end
$var reg 8 L o_output_1_w [7:0] $end
$var reg 8 M o_output_2_r [7:0] $end
$var reg 8 N o_output_2_w [7:0] $end
$upscope $end
$upscope $end
$scope begin t2[1] $end
$scope module u2 $end
$var wire 1 ! i_clk $end
$var wire 8 O i_input_1 [7:0] $end
$var wire 8 P i_input_2 [7:0] $end
$var wire 1 " i_rst_n $end
$var wire 8 Q o_output_1 [7:0] $end
$var wire 8 R o_output_2 [7:0] $end
$var reg 8 S o_output_1_r [7:0] $end
$var reg 8 T o_output_1_w [7:0] $end
$var reg 8 U o_output_2_r [7:0] $end
$var reg 8 V o_output_2_w [7:0] $end
$upscope $end
$upscope $end
$scope begin t3[4] $end
$scope module u2 $end
$var wire 1 ! i_clk $end
$var wire 8 W i_input_1 [7:0] $end
$var wire 8 X i_input_2 [7:0] $end
$var wire 1 " i_rst_n $end
$var wire 8 Y o_output_1 [7:0] $end
$var wire 8 Z o_output_2 [7:0] $end
$var reg 8 [ o_output_1_r [7:0] $end
$var reg 8 \ o_output_1_w [7:0] $end
$var reg 8 ] o_output_2_r [7:0] $end
$var reg 8 ^ o_output_2_w [7:0] $end
$upscope $end
$upscope $end
$scope begin t3[5] $end
$scope module u2 $end
$var wire 1 ! i_clk $end
$var wire 8 _ i_input_1 [7:0] $end
$var wire 8 ` i_input_2 [7:0] $end
$var wire 1 " i_rst_n $end
$var wire 8 a o_output_1 [7:0] $end
$var wire 8 b o_output_2 [7:0] $end
$var reg 8 c o_output_1_r [7:0] $end
$var reg 8 d o_output_1_w [7:0] $end
$var reg 8 e o_output_2_r [7:0] $end
$var reg 8 f o_output_2_w [7:0] $end
$upscope $end
$upscope $end
$scope begin t4[0] $end
$scope module u3 $end
$var wire 1 ! i_clk $end
$var wire 8 g i_input_1 [7:0] $end
$var wire 8 h i_input_2 [7:0] $end
$var wire 1 " i_rst_n $end
$var wire 8 i o_output_1 [7:0] $end
$var wire 8 j o_output_2 [7:0] $end
$var reg 8 k o_output_1_r [7:0] $end
$var reg 8 l o_output_1_w [7:0] $end
$var reg 8 m o_output_2_r [7:0] $end
$var reg 8 n o_output_2_w [7:0] $end
$upscope $end
$upscope $end
$scope begin t4[1] $end
$scope module u3 $end
$var wire 1 ! i_clk $end
$var wire 8 o i_input_1 [7:0] $end
$var wire 8 p i_input_2 [7:0] $end
$var wire 1 " i_rst_n $end
$var wire 8 q o_output_1 [7:0] $end
$var wire 8 r o_output_2 [7:0] $end
$var reg 8 s o_output_1_r [7:0] $end
$var reg 8 t o_output_1_w [7:0] $end
$var reg 8 u o_output_2_r [7:0] $end
$var reg 8 v o_output_2_w [7:0] $end
$upscope $end
$upscope $end
$scope begin t5[0] $end
$scope module u3 $end
$var wire 1 ! i_clk $end
$var wire 8 w i_input_1 [7:0] $end
$var wire 8 x i_input_2 [7:0] $end
$var wire 1 " i_rst_n $end
$var wire 8 y o_output_1 [7:0] $end
$var wire 8 z o_output_2 [7:0] $end
$var reg 8 { o_output_1_r [7:0] $end
$var reg 8 | o_output_1_w [7:0] $end
$var reg 8 } o_output_2_r [7:0] $end
$var reg 8 ~ o_output_2_w [7:0] $end
$upscope $end
$upscope $end
$scope begin t5[1] $end
$scope module u3 $end
$var wire 1 ! i_clk $end
$var wire 8 !" i_input_1 [7:0] $end
$var wire 8 "" i_input_2 [7:0] $end
$var wire 1 " i_rst_n $end
$var wire 8 #" o_output_1 [7:0] $end
$var wire 8 $" o_output_2 [7:0] $end
$var reg 8 %" o_output_1_r [7:0] $end
$var reg 8 &" o_output_1_w [7:0] $end
$var reg 8 '" o_output_2_r [7:0] $end
$var reg 8 (" o_output_2_w [7:0] $end
$upscope $end
$upscope $end
$scope begin t6[0] $end
$scope module u4 $end
$var wire 1 ! i_clk $end
$var wire 8 )" i_input_1 [7:0] $end
$var wire 8 *" i_input_2 [7:0] $end
$var wire 1 " i_rst_n $end
$var wire 8 +" o_output_1 [7:0] $end
$var wire 8 ," o_output_2 [7:0] $end
$var reg 8 -" o_output_1_r [7:0] $end
$var reg 8 ." o_output_1_w [7:0] $end
$var reg 8 /" o_output_2_r [7:0] $end
$var reg 8 0" o_output_2_w [7:0] $end
$upscope $end
$upscope $end
$scope begin t6[1] $end
$scope module u4 $end
$var wire 1 ! i_clk $end
$var wire 8 1" i_input_1 [7:0] $end
$var wire 8 2" i_input_2 [7:0] $end
$var wire 1 " i_rst_n $end
$var wire 8 3" o_output_1 [7:0] $end
$var wire 8 4" o_output_2 [7:0] $end
$var reg 8 5" o_output_1_r [7:0] $end
$var reg 8 6" o_output_1_w [7:0] $end
$var reg 8 7" o_output_2_r [7:0] $end
$var reg 8 8" o_output_2_w [7:0] $end
$upscope $end
$upscope $end
$scope begin t6[2] $end
$scope module u4 $end
$var wire 1 ! i_clk $end
$var wire 8 9" i_input_1 [7:0] $end
$var wire 8 :" i_input_2 [7:0] $end
$var wire 1 " i_rst_n $end
$var wire 8 ;" o_output_1 [7:0] $end
$var wire 8 <" o_output_2 [7:0] $end
$var reg 8 =" o_output_1_r [7:0] $end
$var reg 8 >" o_output_1_w [7:0] $end
$var reg 8 ?" o_output_2_r [7:0] $end
$var reg 8 @" o_output_2_w [7:0] $end
$upscope $end
$upscope $end
$scope begin t6[3] $end
$scope module u4 $end
$var wire 1 ! i_clk $end
$var wire 8 A" i_input_1 [7:0] $end
$var wire 8 B" i_input_2 [7:0] $end
$var wire 1 " i_rst_n $end
$var wire 8 C" o_output_1 [7:0] $end
$var wire 8 D" o_output_2 [7:0] $end
$var reg 8 E" o_output_1_r [7:0] $end
$var reg 8 F" o_output_1_w [7:0] $end
$var reg 8 G" o_output_2_r [7:0] $end
$var reg 8 H" o_output_2_w [7:0] $end
$upscope $end
$upscope $end
$scope begin t7[0] $end
$scope module u5 $end
$var wire 1 ! i_clk $end
$var wire 8 I" i_input_1 [7:0] $end
$var wire 8 J" i_input_2 [7:0] $end
$var wire 1 " i_rst_n $end
$var wire 8 K" o_output_1 [7:0] $end
$var wire 8 L" o_output_2 [7:0] $end
$var reg 8 M" o_output_1_r [7:0] $end
$var reg 8 N" o_output_1_w [7:0] $end
$var reg 8 O" o_output_2_r [7:0] $end
$var reg 8 P" o_output_2_w [7:0] $end
$upscope $end
$upscope $end
$scope begin t7[1] $end
$scope module u5 $end
$var wire 1 ! i_clk $end
$var wire 8 Q" i_input_1 [7:0] $end
$var wire 8 R" i_input_2 [7:0] $end
$var wire 1 " i_rst_n $end
$var wire 8 S" o_output_1 [7:0] $end
$var wire 8 T" o_output_2 [7:0] $end
$var reg 8 U" o_output_1_r [7:0] $end
$var reg 8 V" o_output_1_w [7:0] $end
$var reg 8 W" o_output_2_r [7:0] $end
$var reg 8 X" o_output_2_w [7:0] $end
$upscope $end
$upscope $end
$scope begin t8[4] $end
$scope module u5 $end
$var wire 1 ! i_clk $end
$var wire 8 Y" i_input_1 [7:0] $end
$var wire 8 Z" i_input_2 [7:0] $end
$var wire 1 " i_rst_n $end
$var wire 8 [" o_output_1 [7:0] $end
$var wire 8 \" o_output_2 [7:0] $end
$var reg 8 ]" o_output_1_r [7:0] $end
$var reg 8 ^" o_output_1_w [7:0] $end
$var reg 8 _" o_output_2_r [7:0] $end
$var reg 8 `" o_output_2_w [7:0] $end
$upscope $end
$upscope $end
$scope begin t8[5] $end
$scope module u5 $end
$var wire 1 ! i_clk $end
$var wire 8 a" i_input_1 [7:0] $end
$var wire 8 b" i_input_2 [7:0] $end
$var wire 1 " i_rst_n $end
$var wire 8 c" o_output_1 [7:0] $end
$var wire 8 d" o_output_2 [7:0] $end
$var reg 8 e" o_output_1_r [7:0] $end
$var reg 8 f" o_output_1_w [7:0] $end
$var reg 8 g" o_output_2_r [7:0] $end
$var reg 8 h" o_output_2_w [7:0] $end
$upscope $end
$upscope $end
$scope begin t9[0] $end
$scope module u6 $end
$var wire 1 ! i_clk $end
$var wire 8 i" i_input_1 [7:0] $end
$var wire 8 j" i_input_2 [7:0] $end
$var wire 1 " i_rst_n $end
$var wire 8 k" o_output_2 [7:0] $end
$var wire 8 l" o_output_1 [7:0] $end
$var reg 8 m" o_output_1_r [7:0] $end
$var reg 8 n" o_output_1_w [7:0] $end
$var reg 8 o" o_output_2_r [7:0] $end
$var reg 8 p" o_output_2_w [7:0] $end
$upscope $end
$upscope $end
$scope begin t9[2] $end
$scope module u6 $end
$var wire 1 ! i_clk $end
$var wire 8 q" i_input_1 [7:0] $end
$var wire 8 r" i_input_2 [7:0] $end
$var wire 1 " i_rst_n $end
$var wire 8 s" o_output_2 [7:0] $end
$var wire 8 t" o_output_1 [7:0] $end
$var reg 8 u" o_output_1_r [7:0] $end
$var reg 8 v" o_output_1_w [7:0] $end
$var reg 8 w" o_output_2_r [7:0] $end
$var reg 8 x" o_output_2_w [7:0] $end
$upscope $end
$upscope $end
$scope begin t9[4] $end
$scope module u6 $end
$var wire 1 ! i_clk $end
$var wire 8 y" i_input_1 [7:0] $end
$var wire 8 z" i_input_2 [7:0] $end
$var wire 1 " i_rst_n $end
$var wire 8 {" o_output_2 [7:0] $end
$var wire 8 |" o_output_1 [7:0] $end
$var reg 8 }" o_output_1_r [7:0] $end
$var reg 8 ~" o_output_1_w [7:0] $end
$var reg 8 !# o_output_2_r [7:0] $end
$var reg 8 "# o_output_2_w [7:0] $end
$upscope $end
$upscope $end
$scope begin t9[6] $end
$scope module u6 $end
$var wire 1 ! i_clk $end
$var wire 8 ## i_input_1 [7:0] $end
$var wire 8 $# i_input_2 [7:0] $end
$var wire 1 " i_rst_n $end
$var wire 8 %# o_output_2 [7:0] $end
$var wire 8 &# o_output_1 [7:0] $end
$var reg 8 '# o_output_1_r [7:0] $end
$var reg 8 (# o_output_1_w [7:0] $end
$var reg 8 )# o_output_2_r [7:0] $end
$var reg 8 *# o_output_2_w [7:0] $end
$upscope $end
$upscope $end
$upscope $end
$upscope $end
$enddefinitions $end
#0
$dumpvars
bx *#
bx )#
bx (#
bx '#
bx &#
bx %#
bx $#
bx ##
bx "#
bx !#
bx ~"
bx }"
bx |"
bx {"
bx z"
bx y"
bx x"
bx w"
bx v"
bx u"
bx t"
bx s"
bx r"
bx q"
bx p"
bx o"
bx n"
bx m"
bx l"
bx k"
bx j"
bx i"
bx h"
bx g"
bx f"
bx e"
bx d"
bx c"
bx b"
bx a"
bx `"
bx _"
bx ^"
bx ]"
bx \"
bx ["
bx Z"
bx Y"
bx X"
bx W"
bx V"
bx U"
bx T"
bx S"
bx R"
bx Q"
bx P"
bx O"
bx N"
bx M"
bx L"
bx K"
bx J"
bx I"
bx H"
bx G"
bx F"
bx E"
bx D"
bx C"
bx B"
bx A"
bx @"
bx ?"
bx >"
bx ="
bx <"
bx ;"
bx :"
bx 9"
bx 8"
bx 7"
bx 6"
bx 5"
bx 4"
bx 3"
bx 2"
bx 1"
bx 0"
bx /"
bx ."
bx -"
bx ,"
bx +"
bx *"
bx )"
bx ("
bx '"
bx &"
bx %"
bx $"
bx #"
bx ""
bx !"
bx ~
bx }
bx |
bx {
bx z
bx y
bx x
bx w
bx v
bx u
bx t
bx s
bx r
bx q
bx p
bx o
bx n
bx m
bx l
bx k
bx j
bx i
bx h
bx g
bx f
bx e
bx d
bx c
bx b
bx a
bx `
bx _
bx ^
bx ]
bx \
bx [
bx Z
bx Y
bx X
bx W
bx V
bx U
bx T
bx S
bx R
bx Q
bx P
bx O
bx N
bx M
bx L
bx K
bx J
bx I
bx H
bx G
bx F
bx E
bx D
bx C
bx B
bx A
bx @
bx ?
bx >
bx =
bx <
bx ;
bx :
bx 9
bx 8
bx 7
bx 6
bx 5
bx 4
bx 3
bx 2
bx 1
bx 0
bx /
bx .
bx -
bx ,
bx +
bx *
bx )
bx (
bx '
bx &
bx %
bx $
bx #
1"
1!
$end
#2500
b0 *#
b0 (#
b0 "#
b0 ~"
b0 x"
b0 v"
b0 p"
b0 n"
b0 h"
b0 f"
b0 X"
b0 V"
b0 `"
b0 ^"
b0 P"
b0 N"
b0 H"
b0 F"
b0 @"
b0 >"
b0 8"
b0 6"
b0 0"
b0 ."
b0 ~
b0 |
b0 ("
b0 &"
b0 v
b0 t
b0 n
b0 l
b0 f
b0 d
b0 ^
b0 \
b0 V
b0 T
b0 N
b0 L
b0 %#
b0 )#
b0 &#
b0 '#
b0 {"
b0 !#
b0 |"
b0 }"
b0 s"
b0 w"
b0 t"
b0 u"
b0 k"
b0 o"
b0 &
b0 l"
b0 m"
b0 d"
b0 $#
b0 g"
b0 c"
b0 z"
b0 e"
b0 \"
b0 ##
b0 _"
b0 ["
b0 y"
b0 ]"
b0 T"
b0 r"
b0 W"
b0 S"
b0 j"
b0 U"
b0 L"
b0 q"
b0 O"
b0 K"
b0 i"
b0 M"
b0 D"
b0 b"
b0 G"
b0 C"
b0 R"
b0 E"
b0 <"
b0 Z"
b0 ?"
b0 ;"
b0 J"
b0 ="
b0 4"
b0 a"
b0 7"
b0 3"
b0 Q"
b0 5"
b0 ,"
b0 Y"
b0 /"
b0 +"
b0 I"
b0 -"
b0 $"
b0 :"
b0 '"
b0 #"
b0 B"
b0 %"
b0 z
b0 *"
b0 }
b0 y
b0 2"
b0 {
b0 r
b0 A"
b0 u
b0 q
b0 9"
b0 s
b0 j
b0 1"
b0 m
b0 i
b0 )"
b0 k
b0 b
b0 x
b0 e
b0 a
b0 ""
b0 c
b0 Z
b0 w
b0 ]
b0 Y
b0 !"
b0 [
b0 R
b0 p
b0 U
b0 Q
b0 h
b0 S
b0 J
b0 o
b0 M
b0 I
b0 g
b0 K
b0 B
b0 X
b0 E
b0 A
b0 `
b0 C
b0 :
b0 _
b0 =
b0 9
b0 W
b0 ;
b0 2
b0 H
b0 5
b0 1
b0 P
b0 3
b0 *
b0 O
b0 -
b0 )
b0 G
b0 +
0"
#5000
0!
#10000
1!
#15000
0!
#20000
1!
#25000
0!
#30000
1!
#35000
0!
#40000
1!
#45000
0!
#50000
bx N
bx L
bx V
bx T
bx ^
bx \
bx f
bx d
bx *
bx O
bx -
bx )
bx G
bx +
bx 2
bx H
bx 5
bx 1
bx P
bx 3
bx :
bx _
bx =
bx 9
bx W
bx ;
bx B
bx X
bx E
bx A
bx `
bx C
1!
b0 $
1"
#55000
0!
#60000
bx ~
bx |
bx ("
bx &"
bx v
bx t
bx n
bx l
bx b
bx x
bx e
bx a
bx ""
bx c
bx Z
bx w
bx ]
bx Y
bx !"
bx [
bx R
bx p
bx U
bx Q
bx h
bx S
bx J
bx o
bx M
bx I
bx g
bx K
b1100101 F
b10010 D
b10001101 >
b1101 <
b1100011 6
b1001 4
b10000001 .
b100100 ,
b10010 @
b1100101 ?
b10001101 8
b1101 7
b1100011 0
b1001 /
b10000001 (
b100100 '
1!
b1 $
b1001001100101100011010000110101100011000010011000000100100100 %
b1000 #
#65000
0!
#70000
b1100011 N
b100100 L
b10000001 V
b1001 T
b1100101 ^
b1101 \
b10001101 f
b10010 d
bx 0"
bx ."
bx 8"
bx 6"
bx @"
bx >"
bx H"
bx F"
b10000001 *
b10000001 O
b10000001 -
b100100 )
b100100 G
b100100 +
b1100011 2
b1100011 H
b1100011 5
b1001 1
b1001 P
b1001 3
b10001101 :
b10001101 _
b10001101 =
b1101 9
b1101 W
b1101 ;
b1100101 B
b1100101 X
b1100101 E
b10010 A
b10010 `
b10010 C
bx j
bx 1"
bx m
bx i
bx )"
bx k
bx r
bx A"
bx u
bx q
bx 9"
bx s
bx z
bx *"
bx }
bx y
bx 2"
bx {
bx $"
bx :"
bx '"
bx #"
bx B"
bx %"
b11111001 F
b11000110 D
b11101101 >
b10001100 <
b1110110 6
b111101 4
b1101 .
b1 ,
b11000110 @
b11111001 ?
b10001100 8
b11101101 7
b111101 0
b1110110 /
b1101 (
b1 '
1!
b10 $
b1100011011111001100011001110110100111101011101100000110100000001 %
b1000 #
#75000
0!
#80000
bx h"
bx f"
bx X"
bx V"
bx `"
bx ^"
bx P"
bx N"
b10001101 ~
b1100101 |
b10010 ("
b1101 &"
b10000001 v
b1100011 t
b100100 n
b1001 l
b11101101 f
b11000110 d
b11111001 ^
b10001100 \
b111101 V
b1101 T
b1110110 N
b1 L
bx D"
bx b"
bx G"
bx C"
bx R"
bx E"
bx <"
bx Z"
bx ?"
bx ;"
bx J"
bx ="
bx 4"
bx a"
bx 7"
bx 3"
bx Q"
bx 5"
bx ,"
bx Y"
bx /"
bx +"
bx I"
bx -"
b10001101 b
b10001101 x
b10001101 e
b10010 a
b10010 ""
b10010 c
b1100101 Z
b1100101 w
b1100101 ]
b1101 Y
b1101 !"
b1101 [
b10000001 R
b10000001 p
b10000001 U
b1001 Q
b1001 h
b1001 S
b1100011 J
b1100011 o
b1100011 M
b100100 I
b100100 g
b100100 K
b11111001 B
b11111001 X
b11111001 E
b11000110 A
b11000110 `
b11000110 C
b11101101 :
b11101101 _
b11101101 =
b10001100 9
b10001100 W
b10001100 ;
b1110110 2
b1110110 H
b1110110 5
b111101 1
b111101 P
b111101 3
b1101 *
b1101 O
b1101 -
b1 )
b1 G
b1 +
b11110010 F
b11001110 D
b10001111 >
b10010 <
b11100101 6
b1110111 4
b11000101 .
b10101010 ,
b11001110 @
b11110010 ?
b10001111 8
b10010 7
b1110111 0
b11100101 /
b10101010 (
b11000101 '
1!
b11 $
b1100111011110010100011110001001001110111111001011010101011000101 %
b1000 #
#85000
0!
#90000
b11100101 N
b10101010 L
b11000101 V
b1110111 T
b11110010 ^
b10010 \
b11001110 f
b10001111 d
b1110110 v
b111101 t
b1101 n
b1 l
b11111001 ~
b11101101 |
b11000110 ("
b10001100 &"
b10001101 0"
b1001 ."
b1100101 8"
b100100 6"
b1100011 @"
b10010 >"
b10000001 H"
b1101 F"
bx x"
bx v"
bx p"
bx n"
bx *#
bx (#
bx "#
bx ~"
b11000101 *
b11000101 O
b11000101 -
b10101010 )
b10101010 G
b10101010 +
b11100101 2
b11100101 H
b11100101 5
b1110111 1
b1110111 P
b1110111 3
b10001111 :
b10001111 _
b10001111 =
b10010 9
b10010 W
b10010 ;
b11110010 B
b11110010 X
b11110010 E
b11001110 A
b11001110 `
b11001110 C
b1110110 J
b1110110 o
b1110110 M
b1 I
b1 g
b1 K
b111101 R
b111101 p
b111101 U
b1101 Q
b1101 h
b1101 S
b11111001 Z
b11111001 w
b11111001 ]
b10001100 Y
b10001100 !"
b10001100 [
b11101101 b
b11101101 x
b11101101 e
b11000110 a
b11000110 ""
b11000110 c
b100100 j
b100100 1"
b100100 m
b1001 i
b1001 )"
b1001 k
b10000001 r
b10000001 A"
b10000001 u
b1100011 q
b1100011 9"
b1100011 s
b10001101 z
b10001101 *"
b10001101 }
b1100101 y
b1100101 2"
b1100101 {
b10010 $"
b10010 :"
b10010 '"
b1101 #"
b1101 B"
b1101 %"
bx L"
bx q"
bx O"
bx K"
bx i"
bx M"
bx T"
bx r"
bx W"
bx S"
bx j"
bx U"
bx \"
bx ##
bx _"
bx ["
bx y"
bx ]"
bx d"
bx $#
bx g"
bx c"
bx z"
bx e"
b1100011 F
b1010 D
b1100101 >
b101101 <
b10111101 6
b1011100 4
b11101000 .
b11000101 ,
b1010 @
b1100011 ?
b1100101 8
b101101 7
b10111101 0
b1011100 /
b11000101 (
b11101000 '
1!
b100 $
b101001100011011001010010110110111101010111001100010111101000 %
b1000 #
#95000
0!
#100000
b10000001 h"
b1100101 f"
b100100 X"
b1101 V"
b10001101 `"
b1100011 ^"
b10010 P"
b1001 N"
b10001100 H"
b1110110 F"
b11000110 @"
b111101 >"
b11101101 8"
b1101 6"
b11111001 0"
b1 ."
b11110010 ~
b11001110 |
b10001111 ("
b10010 &"
b11100101 v
b11000101 t
b10101010 n
b1110111 l
b1100101 f
b1010 d
b1100011 ^
b101101 \
b11101000 V
b1011100 T
b11000101 N
b10111101 L
bx %#
bx )#
bx &#
bx '#
bx {"
bx !#
bx |"
bx }"
bx s"
bx w"
bx t"
bx u"
bx k"
bx o"
bx &
bx l"
bx m"
b10000001 D"
b10000001 b"
b10000001 G"
b1101 C"
b1101 R"
b1101 E"
b1100011 <"
b1100011 Z"
b1100011 ?"
b10010 ;"
b10010 J"
b10010 ="
b1100101 4"
b1100101 a"
b1100101 7"
b100100 3"
b100100 Q"
b100100 5"
b10001101 ,"
b10001101 Y"
b10001101 /"
b1001 +"
b1001 I"
b1001 -"
b11000110 $"
b11000110 :"
b11000110 '"
b10001100 #"
b10001100 B"
b10001100 %"
b11111001 z
b11111001 *"
b11111001 }
b11101101 y
b11101101 2"
b11101101 {
b1110110 r
b1110110 A"
b1110110 u
b111101 q
b111101 9"
b111101 s
b1101 j
b1101 1"
b1101 m
b1 i
b1 )"
b1 k
b11001110 b
b11001110 x
b11001110 e
b10001111 a
b10001111 ""
b10001111 c
b11110010 Z
b11110010 w
b11110010 ]
b10010 Y
b10010 !"
b10010 [
b11000101 R
b11000101 p
b11000101 U
b1110111 Q
b1110111 h
b1110111 S
b11100101 J
b11100101 o
b11100101 M
b10101010 I
b10101010 g
b10101010 K
b1100011 B
b1100011 X
b1100011 E
b1010 A
b1010 `
b1010 C
b1100101 :
b1100101 _
b1100101 =
b101101 9
b101101 W
b101101 ;
b10111101 2
b10111101 H
b10111101 5
b1011100 1
b1011100 P
b1011100 3
b11101000 *
b11101000 O
b11101000 -
b11000101 )
b11000101 G
b11000101 +
b1010011 F
b1101 D
b10010110 >
b10011 <
b10101010 6
b10011101 4
b10000000 .
b100000 ,
b1010011 @
b1101 ?
b10011 8
b10010110 7
b10011101 0
b10101010 /
b100000 (
b10000000 '
1!
b101 $
b101001100001101000100111001011010011101101010100010000010000000 %
b1000 #
#105000
0!
#110000
b10101010 N
b100000 L
b10011101 V
b10000000 T
b1010011 ^
b10011 \
b10010110 f
b1101 d
b11101000 v
b10111101 n
b1011100 l
b1100101 ~
b1100011 |
b101101 ("
b1010 &"
b11110010 0"
b1110111 ."
b11001110 8"
b10101010 6"
b11000101 @"
b10001111 >"
b11100101 H"
b10010 F"
b11111001 `"
b11000110 ^"
b111101 P"
b1 N"
b11101101 h"
b10001100 f"
b1110110 X"
b100100 x"
b10010 v"
b1101 p"
b1001 n"
b10001101 *#
b10000001 (#
b1100101 "#
b1100011 ~"
b10000000 *
b10000000 O
b10000000 -
b100000 )
b100000 G
b100000 +
b10101010 2
b10101010 H
b10101010 5
b10011101 1
b10011101 P
b10011101 3
b10010110 :
b10010110 _
b10010110 =
b10011 9
b10011 W
b10011 ;
b1010011 B
b1010011 X
b1010011 E
b1101 A
b1101 `
b1101 C
b11000101 J
b11000101 o
b11000101 M
b10111101 I
b10111101 g
b10111101 K
b11101000 R
b11101000 p
b11101000 U
b1011100 Q
b1011100 h
b1011100 S
b1100011 Z
b1100011 w
b1100011 ]
b101101 Y
b101101 !"
b101101 [
b1100101 b
b1100101 x
b1100101 e
b1010 a
b1010 ""
b1010 c
b10101010 j
b10101010 1"
b10101010 m
b1110111 i
b1110111 )"
b1110111 k
b11100101 r
b11100101 A"
b11100101 u
b11000101 q
b11000101 9"
b11000101 s
b11110010 z
b11110010 *"
b11110010 }
b11001110 y
b11001110 2"
b11001110 {
b10001111 $"
b10001111 :"
b10001111 '"
b10010 #"
b10010 B"
b10010 %"
b11111001 ,"
b11111001 Y"
b11111001 /"
b1 +"
b1 I"
b1 -"
b11101101 4"
b11101101 a"
b11101101 7"
b1101 3"
b1101 Q"
b1101 5"
b11000110 <"
b11000110 Z"
b11000110 ?"
b111101 ;"
b111101 J"
b111101 ="
b10001100 D"
b10001100 b"
b10001100 G"
b1110110 C"
b1110110 R"
b1110110 E"
b10010 L"
b10010 q"
b10010 O"
b1001 K"
b1001 i"
b1001 M"
b100100 T"
b100100 r"
b100100 W"
b1101 S"
b1101 j"
b1101 U"
b10001101 \"
b10001101 ##
b10001101 _"
b1100011 ["
b1100011 y"
b1100011 ]"
b10000001 d"
b10000001 $#
b10000001 g"
b1100101 c"
b1100101 z"
b1100101 e"
b100011 F
b1010 D
b11001111 >
b11101 <
b10101110 6
b10 4
b11010101 .
b1101011 ,
b1010 @
b100011 ?
b11001111 8
b11101 7
b10101110 0
b10 /
b11010101 (
b1101011 '
1!
b110 $
b101000100011110011110001110110101110000000101101010101101011 %
b1000 #
#115000
0!
